waveforms/arith.s.vcd
$date
2021-06-19T14:53+0000
$end
$version
0.2
$end
$comment

$end
$timescale 1ns  $end
$scope module Tile $end
 $var wire 1 , io_regsWriteEnable $end
 $var wire 32 . io_regsReadData $end
 $var wire 32 : io_IMEMAddress $end
 $var wire 1 B io_regsDeviceWriteEnable $end
 $var wire 32 U io_DMEMAddress $end
 $var wire 32 k io_DMEMWriteData $end
 $var wire 1 n CPU $end
 $var wire 32 r io_regsDeviceWriteData $end
 $var wire 5 t io_regsDeviceWriteAddress $end
 $var wire 1 } clock $end
 $var wire 32 "# io_currentPC $end
 $var wire 5 "% io_regsAddress $end
 $var wire 32 "2 io_memDeviceWriteAddress $end
 $var wire 1 "3 io_DMEMWriteEnable $end
 $var wire 32 "= io_IMEMWriteData $end
 $var wire 32 "> io_memDeviceWriteData $end
 $var wire 32 "L io_DMEMReadData $end
 $var wire 1 "P reset $end
 $var wire 1 "X io_setup $end
 $var wire 1 "^ io_memDeviceWriteEnable $end
 $var wire 32 "i io_regsWriteData $end
  $scope module CPU.MEM $end
  $upscope $end
  $scope module CPU.ID.registers $end
  $upscope $end
  $scope module CPU.IFBarrier $end
  $upscope $end
  $scope module CPU.IF $end
  $upscope $end
  $scope module CPU.IF.IMEM $end
  $upscope $end
  $scope module CPU.MEM.DMEM $end
  $upscope $end
  $scope module CPU.ID.Decoder $end
  $upscope $end
  $scope module CPU $end
   $var wire 32 + testHarness_setupSignals_IMEMsignals_address $end
   $var wire 32 / testHarness_setupSignals_IMEMsignals_instruction $end
   $var wire 1 8 testHarness_regUpdates_writeEnable $end
   $var wire 1 E ID $end
   $var wire 1 O testHarness_memUpdates_writeEnable $end
   $var wire 32 Y testHarness_regUpdates_writeData $end
   $var wire 5 [ testHarness_setupSignals_registerSignals_readAddress $end
   $var wire 5 \ testHarness_regUpdates_writeAddress $end
   $var wire 32 ^ testHarness_testReadouts_registerRead $end
   $var wire 32 c testHarness_currentPC $end
   $var wire 1 g IF $end
   $var wire 32 l testHarness_memUpdates_writeAddress $end
   $var wire 1 o testHarness_setupSignals_DMEMsignals_setup $end
   $var wire 1 p IFBarrier $end
   $var wire 32 x testHarness_testReadouts_DMEMread $end
   $var wire 32 z testHarness_setupSignals_DMEMsignals_dataIn $end
   $var wire 1 { testHarness_setupSignals_IMEMsignals_setup $end
   $var wire 1 ", clock $end
   $var wire 32 "/ testHarness_setupSignals_DMEMsignals_dataAddress $end
   $var wire 1 "6 testHarness_setupSignals_registerSignals_setup $end
   $var wire 1 "8 MEM $end
   $var wire 1 "A testHarness_setupSignals_registerSignals_writeEnable $end
   $var wire 32 "\ testHarness_memUpdates_writeData $end
   $var wire 32 "d testHarness_setupSignals_registerSignals_writeData $end
   $var wire 1 "h reset $end
   $var wire 1 "j testHarness_setupSignals_DMEMsignals_writeEnable $end
    $scope module ID $end
     $var wire 1 ! testHarness_registerSetup_writeEnable $end
     $var wire 32 D testHarness_registerPeek $end
     $var wire 1 M testHarness_testUpdates_writeEnable $end
     $var wire 32 P io_instruction_instruction $end
     $var wire 32 T testHarness_registerSetup_writeData $end
     $var wire 5 Z testHarness_testUpdates_writeAddress $end
     $var wire 5 "" testHarness_registerSetup_readAddress $end
     $var wire 1 "* registers $end
     $var wire 1 "D Decoder $end
     $var wire 1 "Y testHarness_registerSetup_setup $end
     $var wire 32 "[ testHarness_testUpdates_writeData $end
     $var wire 1 "` clock $end
      $scope module registers $end
       $var wire 1 % testHarness_testUpdates_writeEnable $end
       $var wire 1 & testHarness_setup_setup $end
       $var wire 32 - testHarness_testUpdates_writeData $end
       $var wire 5 0 readAddress1 $end
       $var wire 1 4 clock $end
       $var wire 32 5 io_readData1 $end
       $var wire 32 7 registerFile $end
       $var wire 1 = testHarness_setup_writeEnable $end
       $var wire 1 H writeEnable $end
       $var wire 5 L io_readAddress1 $end
       $var wire 5 ] testHarness_testUpdates_writeAddress $end
       $var wire 1 h io_writeEnable $end
       $var wire 32 s testHarness_setup_writeData $end
       $var wire 5 "5 testHarness_setup_readAddress $end
       $var wire 5 ": writeAddress $end
       $var wire 5 "G io_writeAddress $end
       $var wire 5 "H io_readAddress2 $end
        $scope module registerFile $end
          $scope module _T_33 $end
           $var wire 1 # en $end
           $var wire 1 ( pipeline_valid_0 $end
           $var wire 1 2 clk $end
           $var wire 5 a pipeline_addr_0 $end
           $var wire 1 f mask $end
           $var wire 1 y valid $end
           $var wire 5 "1 addr $end
           $var wire 32 "C pipeline_data_0 $end
           $var wire 32 "] data $end
          $upscope $end
          $scope module _T_41 $end
           $var wire 32 I data $end
           $var wire 1 ` en $end
           $var wire 1 ") clk $end
           $var wire 5 "U addr $end
          $upscope $end
          $scope module _T_38 $end
           $var wire 1 N clk $end
           $var wire 1 v en $end
           $var wire 5 "! addr $end
           $var wire 32 "Q data $end
          $upscope $end
        $upscope $end
      $upscope $end
      $scope module Decoder $end
       $var wire 1 "' io_controlSignals_regWrite $end
       $var wire 32 "; io_instruction_instruction $end
       $var wire 1 "N decodedControlSignals_1 $end
      $upscope $end
    $upscope $end
    $scope module MEM $end
     $var wire 1 ? DMEM $end
     $var wire 32 C testHarness_testUpdates_writeAddress $end
     $var wire 32 e testHarness_DMEMsetup_dataAddress $end
     $var wire 1 "- testHarness_testUpdates_writeEnable $end
     $var wire 1 "7 testHarness_DMEMsetup_writeEnable $end
     $var wire 32 "< testHarness_DMEMpeek $end
     $var wire 1 "M testHarness_DMEMsetup_setup $end
     $var wire 32 "T testHarness_testUpdates_writeData $end
     $var wire 1 "Z clock $end
     $var wire 32 "f testHarness_DMEMsetup_dataIn $end
      $scope module DMEM $end
       $var wire 32 ' testHarness_testUpdates_writeData $end
       $var wire 1 * _GEN_6 $end
       $var wire 12 1 data__T_24_addr_pipe_0 $end
       $var wire 1 < testHarness_testUpdates_writeEnable $end
       $var wire 32 A testHarness_setup_dataAddress $end
       $var wire 32 F testHarness_testUpdates_writeAddress $end
       $var wire 32 R addressSource $end
       $var wire 32 W data $end
       $var wire 1 ". testHarness_setup_writeEnable $end
       $var wire 1 "0 testHarness_setup_setup $end
       $var wire 1 "F clock $end
       $var wire 32 "O testHarness_setup_dataIn $end
       $var wire 32 "_ io_dataOut $end
        $scope module data $end
          $scope module _T_26 $end
           $var wire 1 " clk $end
           $var wire 12 K addr $end
           $var wire 32 S pipeline_data_0 $end
           $var wire 1 m pipeline_valid_0 $end
           $var wire 32 w data $end
           $var wire 1 "B en $end
           $var wire 12 "I pipeline_addr_0 $end
           $var wire 1 "S valid $end
           $var wire 1 "b mask $end
          $upscope $end
          $scope module _T_24 $end
           $var wire 32 ; data $end
           $var wire 1 ~ clk $end
           $var wire 1 "E en $end
           $var wire 12 "K addr $end
          $upscope $end
        $upscope $end
      $upscope $end
    $upscope $end
    $scope module IF $end
     $var wire 1 $ testHarness_IMEMsetup_setup $end
     $var wire 1 @ IMEM $end
     $var wire 32 G testHarness_IMEMsetup_instruction $end
     $var wire 32 _ PC $end
     $var wire 1 i clock $end
     $var wire 32 j testHarness_PC $end
     $var wire 1 "9 reset $end
     $var wire 32 "@ testHarness_IMEMsetup_address $end
     $var wire 32 "V io_instruction_instruction $end
     $var wire 32 "g _GEN_0 $end
      $scope module IMEM $end
       $var wire 32 9 testHarness_setupSignals_instruction $end
       $var wire 12 > instructions__T_20_addr_pipe_0 $end
       $var wire 1 X clock $end
       $var wire 32 u testHarness_setupSignals_address $end
       $var wire 1 | _GEN_4 $end
       $var wire 32 "$ io_instruction $end
       $var wire 1 "4 testHarness_setupSignals_setup $end
       $var wire 32 "J addressSource $end
       $var wire 32 "R testHarness_requestedAddress $end
       $var wire 32 "a io_instructionAddress $end
       $var wire 32 "e instructions $end
        $scope module instructions $end
          $scope module _T_18 $end
           $var wire 1 ) valid $end
           $var wire 1 6 mask $end
           $var wire 1 J pipeline_valid_0 $end
           $var wire 12 b addr $end
           $var wire 1 d clk $end
           $var wire 32 "( data $end
           $var wire 12 "+ pipeline_addr_0 $end
           $var wire 32 "W pipeline_data_0 $end
           $var wire 1 "c en $end
          $upscope $end
          $scope module _T_20 $end
           $var wire 1 V en $end
           $var wire 12 q addr $end
           $var wire 1 "& clk $end
           $var wire 32 "? data $end
          $upscope $end
        $upscope $end
      $upscope $end
    $upscope $end
    $scope module IFBarrier $end
     $var wire 32 3 io_instruction_out_instruction $end
     $var wire 32 Q io_instruction_in_instruction $end
    $upscope $end
  $upscope $end
  $scope module CPU.ID $end
  $upscope $end
$upscope $end
$enddefinitions $end
$dumpvars
b00000000000000000000000000000000 Y
0X
0"7
0&
b000000000000 K
b000000000000 "K
b00000000000000000000000000000000 '
0o
b00000000000000000000000000000000 ">
0"c
0=
b000000000000 b
b00000000000000000000000000000000 r
0"P
b00000000000000000000000000000000 "#
b00000000000000000000000000000000 "d
b00000000000000000000000000000000 l
b00000000000000000000000000000000 "2
b00000 ""
b00000000000000000000000000000000 :
b000000000000 "I
0m
b00000000000000000000000000000000 Q
0g
b00000 "H
0"F
0")
0~
1"b
b00000000000000000000000000000000 w
b000000000000 q
1"E
b00000000000000000000000000000000 "\
0)
b00000000000000000000000000000000 s
0H
0@
b00000000000000000000000000000000 A
b00000000000000000000000000000000 "C
b00000000000000000000000000000000 ;
0%
0v
0"j
b00000000000000000000000000000000 "R
b00000000000000000000000000000000 "=
b00000 "%
0"8
0p
b00000000000000000000000000000000 T
0!
b00000000000000000000000000000000 k
b00000 "!
0"4
b00000000000000000000000000000000 9
0"`
b00000000000000000000000000000000 e
0O
b00000000000000000000000000000000 P
0".
b00000000000000000000000000000000 3
b00000000000000000000000000000000 "g
0{
0"Z
1*
04
b00000000000000000000000000000000 "a
b00000000000000000000000000000000 "L
b00000000000000000000000000000000 "/
0`
0"*
b00000000000000000000000000000000 /
b000000000000 >
0E
b00000 Z
0(
b00000000000000000000000000000000 "]
b00000000000000000000000000000000 "@
0?
b00000000000000000000000000000000 "W
b00000 "G
b00000000000000000000000000000000 _
b00000000000000000000000000000000 -
1V
b00000000000000000000000000000000 "<
b00000000000000000000000000000000 D
0"N
0"9
b00000000000000000000000000000000 S
0i
b00000000000000000000000000000000 U
b00000000000000000000000000000000 j
0"3
b00000 a
b00000 L
0"
b00000000000000000000000000000000 "O
0N
0"-
b00000 [
b00000000000000000000000000000000 "f
b00000000000000000000000000000000 "Q
0"D
b00000 "1
b00000 ]
b00000000000000000000000000000000 I
0"'
b00000 t
0J
1|
b00000000000000000000000000000000 .
b00000 "5
b00000000000000000000000000000000 "(
0"B
b00000000000000000000000000000000 G
b000000000000 1
0"Y
b00000000000000000000000000000000 ^
b00000000000000000000000000000000 "$
b00000000000000000000000000000000 u
0"h
0"S
b00000000000000000000000000000000 ";
b00000000000000000000000000000000 C
0"6
0B
0n
0"M
0<
b00000000000000000000000000000000 "i
1f
b00000000000000000000000000000000 "?
b00000000000000000000000000000000 "T
b00000000000000000000000000000000 7
b00000000000000000000000000000000 "V
16
0M
08
0#
0",
b00000 0
b00000 "U
b00000000000000000000000000000000 "e
b000000000000 "+
0d
b00000 \
02
b00000000000000000000000000000000 "J
b00000 ":
b00000000000000000000000000000000 R
0"0
b00000000000000000000000000000000 5
0}
0h
b00000000000000000000000000000000 "[
0"^
b00000000000000000000000000000000 c
b00000000000000000000000000000000 x
0"A
b00000000000000000000000000000000 F
0y
b00000000000000000000000000000000 z
0"X
0"&
b00000000000000000000000000000000 +
b00000000000000000000000000000000 "_
b00000000000000000000000000000000 W
0,
0$
$end
#0
1"h
b00000000000000000000000000000100 "g
1"9
1"P
#1
1i
1d
14
1}
1"F
1"`
1"Z
1N
1",
1~
1")
12
1X
1"&
1"
#6
0"`
0"
0i
0}
0",
0"F
0d
0N
0~
02
0"Z
0X
0"&
0")
04
#11
1i
1d
14
1}
1"F
1"`
1"Z
1N
1",
1~
1")
12
1X
1"&
1"
#16
0"`
0"
0i
0}
0",
0"F
0d
0N
0~
02
0"Z
0X
0"&
0")
04
#21
1i
1d
14
1}
1"F
1"`
1"Z
1N
1",
1~
1")
12
1X
1"&
1"
#26
0"`
0"
0i
0}
0",
0"F
0d
0N
0~
02
0"Z
0X
0"&
0")
04
#31
1i
1d
14
1}
1"F
1"`
1"Z
1N
1",
1~
1")
12
1X
1"&
1"
#36
0"`
0"
0i
0}
0",
0"F
0d
0N
0~
02
0"Z
0X
0"&
0")
04
#41
1i
1d
14
1}
1"F
1"`
1"Z
1N
1",
1~
1")
12
1X
1"&
1"
#46
1&
b00000000000100000000000010010011 "=
0"
0i
0}
0"P
b00000000000100000000000010010011 9
1)
0d
0N
b00000000000100000000000010010011 G
b00000000000000000000000000000000 "g
02
b00000000000000000000000000010011 Q
1"4
0"9
1o
1"0
0")
1$
0"`
0",
1"6
b00000000000000000000000000010011 3
0"F
b00000000000000000000000000010011 "V
b00000000000100000000000010010011 /
b00000000000000000000000000010011 P
b00000000000000000000000000010011 ";
1{
1"M
0~
b00000000000100000000000010010011 "(
0"Z
1"c
0"h
0X
1"X
0"&
1"Y
04
#51
1i
b00000000000100000000000010010011 "$
1d
14
1}
1"F
1"`
1"Z
1N
1",
1J
b00000000000100000000000010010011 "?
1~
1")
12
1X
1"&
b00000000000100000000000010010011 "W
1"
#56
0"`
0"
0i
0}
0",
b11111111111100000000000100010011 "(
0"F
b00000000000000000000000000000100 "J
0d
0N
b11111111111100000000000100010011 G
b11111111111100000000000100010011 "=
0~
b000000000100 b
02
b00000000000000000000000000000100 :
b00000000000000000000000000000100 +
b00000000000000000000000000000100 "@
0"Z
b11111111111100000000000100010011 9
0X
b00000000000000000000000000000100 u
0"&
0")
b11111111111100000000000100010011 /
04
#61
b11111111111100000000000100010011 "?
b000000000100 >
1i
1d
14
1}
1"F
1"`
b11111111111100000000000100010011 "$
b11111111111100000000000100010011 "W
1"Z
1",
1N
1~
1")
12
1X
b000000000100 q
1"&
1"
b000000000100 "+
#66
b00000000000000000000000000001000 :
b00000000001100000000000110010011 "(
0"`
0"
0i
0}
b00000000001100000000000110010011 "=
0",
0"F
b00000000000000000000000000001000 u
0d
0N
b00000000000000000000000000001000 +
0~
02
b000000001000 b
0"Z
b00000000000000000000000000001000 "@
0X
b00000000001100000000000110010011 G
0"&
b00000000001100000000000110010011 /
0")
b00000000001100000000000110010011 9
b00000000000000000000000000001000 "J
04
#71
1i
1d
b00000000001100000000000110010011 "W
b00000000001100000000000110010011 "$
14
1}
1"F
1"`
b000000001000 q
1"Z
1N
1",
b00000000001100000000000110010011 "?
b000000001000 "+
b000000001000 >
1~
1")
12
1X
1"&
1"
#76
0"`
0"
0i
0}
b000000001100 b
b00000000000000000000000000001100 +
b00000000011100000000001000010011 "(
0",
0"F
b00000000011100000000001000010011 9
0d
0N
b00000000011100000000001000010011 "=
b00000000011100000000001000010011 G
b00000000000000000000000000001100 u
0~
02
b00000000011100000000001000010011 /
b00000000000000000000000000001100 "J
b00000000000000000000000000001100 "@
0"Z
0X
b00000000000000000000000000001100 :
0"&
0")
04
#81
b00000000011100000000001000010011 "W
1i
1d
14
1}
1"F
1"`
b000000001100 "+
1"Z
1N
1",
b000000001100 q
b000000001100 >
1~
b00000000011100000000001000010011 "$
12
1X
1")
b00000000011100000000001000010011 "?
1"&
1"
#86
0"`
0"
0i
0}
b00000000000000000000000000010000 +
0",
0"F
b00000000111000000000001010010011 /
b00000000111000000000001010010011 G
0d
0N
b00000000111000000000001010010011 9
b000000010000 b
0~
02
0"Z
b00000000000000000000000000010000 "@
b00000000000000000000000000010000 :
0X
b00000000111000000000001010010011 "=
b00000000000000000000000000010000 u
0"&
0")
b00000000111000000000001010010011 "(
b00000000000000000000000000010000 "J
04
#91
1i
1d
14
1}
1"F
1"`
b00000000111000000000001010010011 "W
1"Z
1N
1",
b000000010000 >
b000000010000 q
1~
b00000000111000000000001010010011 "?
12
1X
1")
1"&
1"
b000000010000 "+
b00000000111000000000001010010011 "$
#96
0"`
0"
0i
0}
b00000000000000000000000000010100 "J
b00000000000000000000000000010100 :
0",
b00000001110000000000001100010011 "=
b00000000000000000000000000010100 "@
0"F
b00000001110000000000001100010011 G
0d
0N
b00000001110000000000001100010011 "(
b00000000000000000000000000010100 +
0~
02
b00000001110000000000001100010011 /
0"Z
0X
b000000010100 b
b00000000000000000000000000010100 u
b00000001110000000000001100010011 9
0"&
0")
04
#101
1i
1d
b000000010100 q
14
1}
1"F
b000000010100 >
1"`
b00000001110000000000001100010011 "$
1"Z
1N
1",
b00000001110000000000001100010011 "W
1~
1")
12
1X
1"&
1"
b000000010100 "+
b00000001110000000000001100010011 "?
#106
0"`
0"
0i
0}
b00000000000000000000000000011000 "J
b00000011100000000000001110010011 G
b00000000000000000000000000011000 u
b00000011100000000000001110010011 "=
0",
0"F
b00000000000000000000000000011000 +
0d
0N
b00000000000000000000000000011000 "@
0~
b00000011100000000000001110010011 9
b00000000000000000000000000011000 :
b000000011000 b
b00000011100000000000001110010011 "(
02
b00000011100000000000001110010011 /
0"Z
0X
0"&
0")
04
#111
1i
1d
b000000011000 q
14
1}
1"F
b00000011100000000000001110010011 "W
1"`
1"Z
1N
1",
b000000011000 "+
1~
1")
12
1X
b00000011100000000000001110010011 "$
b000000011000 >
1"&
b00000011100000000000001110010011 "?
1"
#116
b00000000000000000000000000011100 +
0"`
0"
0i
0}
b00000000000000000000000000011100 "@
b00001000010100000000010000010011 "=
0",
b00001000010100000000010000010011 G
b00001000010100000000010000010011 9
0"F
b00001000010100000000010000010011 "(
0d
0N
b00001000010100000000010000010011 /
b00000000000000000000000000011100 u
b00000000000000000000000000011100 "J
b000000011100 b
0~
02
b00000000000000000000000000011100 :
0"Z
0X
0"&
0")
04
#121
b00001000010100000000010000010011 "W
1i
1d
14
1}
1"F
b000000011100 >
1"`
1"Z
1N
1",
1~
1")
b00001000010100000000010000010011 "?
1X
b000000011100 q
b00001000010100000000010000010011 "$
12
b000000011100 "+
1"&
1"
#126
0"`
0"
0i
0}
b00000000000000000000000000100000 :
b00010000001000000000010010010011 "(
0",
b00010000001000000000010010010011 G
b00000000000000000000000000100000 "@
0"F
b00000000000000000000000000100000 u
0d
0N
b00000000000000000000000000100000 "J
0~
b00010000001000000000010010010011 /
02
b00000000000000000000000000100000 +
0"Z
b00010000001000000000010010010011 9
b000000100000 b
0X
b00010000001000000000010010010011 "=
0"&
0")
04
#131
1i
1d
14
1}
b000000100000 "+
1"F
b00010000001000000000010010010011 "?
1"`
b00010000001000000000010010010011 "$
1"Z
1N
1",
b00010000001000000000010010010011 "W
b000000100000 >
b000000100000 q
1~
1")
12
1X
1"&
1"
#136
b11110001100100001000010100010011 "=
b11110001100100001000010100010011 /
0"`
0"
0i
0}
b00000000000000000000000000100100 :
b00000000000000000000000000100100 +
b11110001100100001000010100010011 "(
0",
b00000000000000000000000000100100 "@
0"F
b000000100100 b
0d
0N
b00000000000000000000000000100100 u
0~
b00000000000000000000000000100100 "J
02
0"Z
0X
b11110001100100001000010100010011 9
0"&
0")
b11110001100100001000010100010011 G
04
#141
b11110001100100001000010100010011 "?
b000000100100 "+
1i
1d
14
1}
1"F
1"`
1"Z
b11110001100100001000010100010011 "W
b000000100100 >
1",
1N
b000000100100 q
1~
1")
12
1X
b11110001100100001000010100010011 "$
1"&
1"
#146
b11100000001000001000010110010011 "(
0"`
0"
0i
0}
b11100000001000001000010110010011 G
0",
0"F
b000000101000 b
0d
0N
b00000000000000000000000000101000 "@
b11100000001000001000010110010011 "=
b00000000000000000000000000101000 u
0~
b11100000001000001000010110010011 /
b00000000000000000000000000101000 +
02
0"Z
0X
b11100000001000001000010110010011 9
0"&
b00000000000000000000000000101000 "J
0")
b00000000000000000000000000101000 :
04
#151
1i
1d
14
1}
b000000101000 "+
1"F
1"`
1"Z
1N
1",
1~
b11100000001000001000010110010011 "$
12
1X
b000000101000 q
b11100000001000001000010110010011 "W
1")
b11100000001000001000010110010011 "?
1"&
1"
b000000101000 >
#156
b00000000000000000000000000101100 u
0"`
0"
0i
0}
0",
0"F
b00000000000000000000000000101100 +
0d
0N
b000000101100 b
b00000000000100001010011000110011 /
0~
b00000000000100001010011000110011 "=
b00000000000000000000000000101100 :
02
0"Z
0X
b00000000000100001010011000110011 9
b00000000000100001010011000110011 G
b00000000000000000000000000101100 "@
b00000000000000000000000000101100 "J
0"&
0")
b00000000000100001010011000110011 "(
04
#161
1i
1d
14
b000000101100 "+
1}
1"F
b000000101100 q
1"`
1"Z
1N
1",
b00000000000100001010011000110011 "$
b000000101100 >
b00000000000100001010011000110011 "W
1~
1")
12
1X
1"&
1"
b00000000000100001010011000110011 "?
#166
b00000000001000001010011000110011 "=
0"`
0"
0i
0}
b00000000000000000000000000110000 :
0",
0"F
0d
0N
b00000000001000001010011000110011 /
b00000000001000001010011000110011 "(
0~
b00000000001000001010011000110011 G
02
b00000000000000000000000000110000 "J
b00000000000000000000000000110000 u
b00000000000000000000000000110000 "@
0"Z
b000000110000 b
0X
b00000000001000001010011000110011 9
0"&
b00000000000000000000000000110000 +
0")
04
#171
b00000000001000001010011000110011 "W
1i
1d
14
1}
1"F
1"`
1"Z
1N
1",
b00000000001000001010011000110011 "?
b000000110000 >
b00000000001000001010011000110011 "$
1~
1")
12
b000000110000 "+
1X
b000000110000 q
1"&
1"
#176
b00000000001100001010011000110011 9
b00000000000000000000000000110100 "J
0"`
0"
0i
0}
0",
0"F
0d
0N
b000000110100 b
0~
b00000000000000000000000000110100 +
b00000000001100001010011000110011 /
b00000000000000000000000000110100 "@
02
b00000000001100001010011000110011 "=
b00000000000000000000000000110100 u
0"Z
b00000000001100001010011000110011 G
b00000000001100001010011000110011 "(
0X
0"&
b00000000000000000000000000110100 :
0")
04
#181
1i
1d
b00000000001100001010011000110011 "$
14
b000000110100 "+
1}
1"F
1"`
1"Z
1N
1",
b00000000001100001010011000110011 "W
1~
1")
12
1X
b000000110100 >
1"&
b00000000001100001010011000110011 "?
1"
b000000110100 q
#186
b000000111000 b
b00000000000100010010011000110011 G
0"`
0"
0i
0}
0",
b00000000000000000000000000111000 :
0"F
b00000000000000000000000000111000 u
0d
0N
b00000000000100010010011000110011 /
b00000000000000000000000000111000 "@
b00000000000100010010011000110011 "(
0~
02
b00000000000000000000000000111000 +
b00000000000100010010011000110011 "=
0"Z
0X
b00000000000000000000000000111000 "J
b00000000000100010010011000110011 9
0"&
0")
04
#191
1i
1d
14
b000000111000 >
1}
1"F
1"`
1"Z
b000000111000 q
1",
1N
b000000111000 "+
b00000000000100010010011000110011 "W
1~
1")
12
1X
b00000000000100010010011000110011 "$
1"&
1"
b00000000000100010010011000110011 "?
#196
b00000000001000010010011000110011 /
0"`
0"
0i
0}
b00000000000000000000000000111100 "J
0",
b00000000000000000000000000111100 "@
0"F
b00000000001000010010011000110011 9
0d
0N
0~
b00000000000000000000000000111100 u
b00000000000000000000000000111100 :
02
b00000000000000000000000000111100 +
b00000000001000010010011000110011 "(
0"Z
0X
b00000000001000010010011000110011 G
b000000111100 b
0"&
0")
b00000000001000010010011000110011 "=
04
#201
1i
1d
14
b000000111100 >
1}
b000000111100 q
1"F
1"`
b00000000001000010010011000110011 "$
1"Z
1N
1",
b00000000001000010010011000110011 "W
1~
1")
12
1X
b00000000001000010010011000110011 "?
1"&
1"
b000000111100 "+
#206
b00000000000000000000000001000000 :
0"`
0"
0i
0}
0",
b00000000000000000000000001000000 u
b00000000000000000000000001000000 "@
b00000000000000000000000001000000 "J
0"F
b00000000001100010010011000110011 "=
0d
0N
b00000000001100010010011000110011 /
b00000000000000000000000001000000 +
b00000000001100010010011000110011 "(
0~
02
b000001000000 b
0"Z
0X
b00000000001100010010011000110011 9
0"&
0")
b00000000001100010010011000110011 G
04
#211
1i
b000001000000 "+
1d
14
1}
1"F
b000001000000 q
1"`
1"Z
1N
1",
b00000000001100010010011000110011 "?
1~
1")
12
1X
b00000000001100010010011000110011 "$
b00000000001100010010011000110011 "W
b000001000000 >
1"&
1"
#216
b00000000000000000000000001000100 :
b00000000000000000000000001000100 "J
b00000000000000000000000001000100 +
0"`
0"
0i
0}
b00000000000100001011011000110011 "(
b00000000000100001011011000110011 9
0",
0"F
b00000000000100001011011000110011 "=
0d
0N
b00000000000100001011011000110011 G
b000001000100 b
0~
02
0"Z
b00000000000100001011011000110011 /
0X
b00000000000000000000000001000100 u
b00000000000000000000000001000100 "@
0"&
0")
04
#221
1i
1d
14
b00000000000100001011011000110011 "?
1}
1"F
b000001000100 q
1"`
b00000000000100001011011000110011 "$
1"Z
1N
1",
b00000000000100001011011000110011 "W
1~
1")
12
1X
1"&
1"
b000001000100 >
b000001000100 "+
#226
0"`
0"
0i
0}
b00000000000000000000000001001000 "J
0",
0"F
0d
0N
b00000000000000000000000001001000 u
b00000000001000001011011000110011 /
b00000000001000001011011000110011 9
0~
b00000000001000001011011000110011 "(
02
b00000000000000000000000001001000 +
0"Z
b00000000000000000000000001001000 "@
b00000000001000001011011000110011 G
b000001001000 b
0X
b00000000000000000000000001001000 :
0"&
0")
b00000000001000001011011000110011 "=
04
#231
1i
b00000000001000001011011000110011 "$
1d
14
1}
1"F
1"`
b000001001000 q
1"Z
1N
1",
b000001001000 "+
b00000000001000001011011000110011 "?
b00000000001000001011011000110011 "W
1~
1")
12
1X
1"&
1"
b000001001000 >
#236
0"`
0"
0i
0}
b00000000000000000000000001001100 "@
0",
b00000000001100001011011000110011 "=
0"F
b00000000001100001011011000110011 /
0d
0N
b000001001100 b
b00000000000000000000000001001100 :
0~
b00000000001100001011011000110011 9
02
b00000000000000000000000001001100 +
0"Z
0X
b00000000000000000000000001001100 u
b00000000000000000000000001001100 "J
0"&
b00000000001100001011011000110011 "(
0")
b00000000001100001011011000110011 G
04
#241
b000001001100 "+
1i
1d
14
1}
1"F
1"`
b00000000001100001011011000110011 "?
1"Z
1N
1",
b000001001100 q
b00000000001100001011011000110011 "W
b000001001100 >
1~
1")
12
1X
b00000000001100001011011000110011 "$
1"&
1"
#246
0"`
0"
0i
0}
0",
b00000000000100010011011000110011 "=
b00000000000100010011011000110011 9
0"F
b00000000000100010011011000110011 /
b00000000000000000000000001010000 "J
0d
0N
b00000000000000000000000001010000 u
0~
b00000000000100010011011000110011 G
02
b000001010000 b
0"Z
b00000000000000000000000001010000 "@
b00000000000100010011011000110011 "(
b00000000000000000000000001010000 +
0X
b00000000000000000000000001010000 :
0"&
0")
04
#251
1i
b000001010000 >
1d
14
b00000000000100010011011000110011 "W
1}
1"F
1"`
1"Z
1N
1",
b00000000000100010011011000110011 "$
b00000000000100010011011000110011 "?
b000001010000 "+
1~
1")
12
1X
b000001010000 q
1"&
1"
#256
b00000000000000000000000001010100 "J
0"`
0"
0i
0}
b00000000000000000000000001010100 +
b00000000001000010011011000110011 G
b00000000000000000000000001010100 u
b00000000001000010011011000110011 "(
0",
b00000000001000010011011000110011 9
0"F
b00000000001000010011011000110011 "=
b00000000000000000000000001010100 :
0d
0N
b00000000001000010011011000110011 /
b00000000000000000000000001010100 "@
0~
02
0"Z
0X
b000001010100 b
0"&
0")
04
#261
b000001010100 "+
1i
1d
14
b000001010100 >
1}
1"F
1"`
1"Z
1N
1",
b00000000001000010011011000110011 "W
b00000000001000010011011000110011 "?
1~
1")
12
1X
b000001010100 q
1"&
1"
b00000000001000010011011000110011 "$
#266
0"`
0"
0i
0}
b00000000001100010011011000110011 9
0",
b00000000001100010011011000110011 "=
0"F
b00000000001100010011011000110011 "(
b000001011000 b
b00000000001100010011011000110011 /
0d
0N
b00000000000000000000000001011000 +
0~
02
0"Z
b00000000001100010011011000110011 G
b00000000000000000000000001011000 u
0X
b00000000000000000000000001011000 "J
0"&
b00000000000000000000000001011000 :
0")
b00000000000000000000000001011000 "@
04
#271
1i
1d
14
1}
b00000000001100010011011000110011 "W
1"F
1"`
b000001011000 "+
1"Z
1N
1",
b00000000001100010011011000110011 "$
1~
1")
12
1X
b00000000001100010011011000110011 "?
1"&
1"
b000001011000 >
b000001011000 q
#276
b00000000000100001001011100110011 G
0"`
0"
0i
0}
b00000000000000000000000001011100 +
b00000000000000000000000001011100 "@
b00000000000000000000000001011100 "J
0",
0"F
b00000000000000000000000001011100 :
b00000000000100001001011100110011 "(
b00000000000100001001011100110011 9
0d
0N
0~
02
b00000000000100001001011100110011 "=
b000001011100 b
0"Z
b00000000000100001001011100110011 /
0X
b00000000000000000000000001011100 u
0"&
0")
04
#281
1i
1d
14
1}
1"F
1"`
1"Z
b000001011100 q
1",
1N
b00000000000100001001011100110011 "?
b000001011100 "+
b000001011100 >
1~
1")
b00000000000100001001011100110011 "W
1X
12
1"&
1"
b00000000000100001001011100110011 "$
#286
b000001100000 b
b00000000001000001001011100110011 "=
b00000000000000000000000001100000 "J
0"`
0"
0i
0}
b00000000001000001001011100110011 /
0",
b00000000001000001001011100110011 9
0"F
b00000000001000001001011100110011 G
0d
0N
b00000000000000000000000001100000 "@
0~
b00000000000000000000000001100000 u
b00000000001000001001011100110011 "(
02
b00000000000000000000000001100000 :
0"Z
0X
0"&
b00000000000000000000000001100000 +
0")
04
#291
1i
1d
14
1}
1"F
b000001100000 q
1"`
1"Z
1N
1",
b00000000001000001001011100110011 "W
b00000000001000001001011100110011 "?
b00000000001000001001011100110011 "$
b000001100000 >
1~
1")
12
1X
1"&
b000001100000 "+
1"
#296
b00000000001100001001011100110011 9
b00000000001100001001011100110011 "(
0"`
0"
0i
0}
b00000000001100001001011100110011 G
b00000000000000000000000001100100 "@
0",
b00000000000000000000000001100100 :
0"F
b00000000000000000000000001100100 +
0d
0N
b000001100100 b
0~
02
b00000000001100001001011100110011 /
0"Z
b00000000001100001001011100110011 "=
b00000000000000000000000001100100 "J
0X
0"&
b00000000000000000000000001100100 u
0")
04
