waveforms/forward2.s.vcd
$date
2021-06-19T14:52+0000
$end
$version
0.2
$end
$comment

$end
$timescale 1ns  $end
$scope module Tile $end
 $var wire 1 , io_regsWriteEnable $end
 $var wire 32 . io_regsReadData $end
 $var wire 32 : io_IMEMAddress $end
 $var wire 1 B io_regsDeviceWriteEnable $end
 $var wire 32 U io_DMEMAddress $end
 $var wire 32 k io_DMEMWriteData $end
 $var wire 1 n CPU $end
 $var wire 32 r io_regsDeviceWriteData $end
 $var wire 5 t io_regsDeviceWriteAddress $end
 $var wire 1 } clock $end
 $var wire 32 "# io_currentPC $end
 $var wire 5 "% io_regsAddress $end
 $var wire 32 "2 io_memDeviceWriteAddress $end
 $var wire 1 "3 io_DMEMWriteEnable $end
 $var wire 32 "= io_IMEMWriteData $end
 $var wire 32 "> io_memDeviceWriteData $end
 $var wire 32 "L io_DMEMReadData $end
 $var wire 1 "P reset $end
 $var wire 1 "X io_setup $end
 $var wire 1 "^ io_memDeviceWriteEnable $end
 $var wire 32 "i io_regsWriteData $end
  $scope module CPU.MEM $end
  $upscope $end
  $scope module CPU.ID.registers $end
  $upscope $end
  $scope module CPU.IFBarrier $end
  $upscope $end
  $scope module CPU.IF $end
  $upscope $end
  $scope module CPU.IF.IMEM $end
  $upscope $end
  $scope module CPU.MEM.DMEM $end
  $upscope $end
  $scope module CPU.ID.Decoder $end
  $upscope $end
  $scope module CPU $end
   $var wire 32 + testHarness_setupSignals_IMEMsignals_address $end
   $var wire 32 / testHarness_setupSignals_IMEMsignals_instruction $end
   $var wire 1 8 testHarness_regUpdates_writeEnable $end
   $var wire 1 E ID $end
   $var wire 1 O testHarness_memUpdates_writeEnable $end
   $var wire 32 Y testHarness_regUpdates_writeData $end
   $var wire 5 [ testHarness_setupSignals_registerSignals_readAddress $end
   $var wire 5 \ testHarness_regUpdates_writeAddress $end
   $var wire 32 ^ testHarness_testReadouts_registerRead $end
   $var wire 32 c testHarness_currentPC $end
   $var wire 1 g IF $end
   $var wire 32 l testHarness_memUpdates_writeAddress $end
   $var wire 1 o testHarness_setupSignals_DMEMsignals_setup $end
   $var wire 1 p IFBarrier $end
   $var wire 32 x testHarness_testReadouts_DMEMread $end
   $var wire 32 z testHarness_setupSignals_DMEMsignals_dataIn $end
   $var wire 1 { testHarness_setupSignals_IMEMsignals_setup $end
   $var wire 1 ", clock $end
   $var wire 32 "/ testHarness_setupSignals_DMEMsignals_dataAddress $end
   $var wire 1 "6 testHarness_setupSignals_registerSignals_setup $end
   $var wire 1 "8 MEM $end
   $var wire 1 "A testHarness_setupSignals_registerSignals_writeEnable $end
   $var wire 32 "\ testHarness_memUpdates_writeData $end
   $var wire 32 "d testHarness_setupSignals_registerSignals_writeData $end
   $var wire 1 "h reset $end
   $var wire 1 "j testHarness_setupSignals_DMEMsignals_writeEnable $end
    $scope module ID $end
     $var wire 1 ! testHarness_registerSetup_writeEnable $end
     $var wire 32 D testHarness_registerPeek $end
     $var wire 1 M testHarness_testUpdates_writeEnable $end
     $var wire 32 P io_instruction_instruction $end
     $var wire 32 T testHarness_registerSetup_writeData $end
     $var wire 5 Z testHarness_testUpdates_writeAddress $end
     $var wire 5 "" testHarness_registerSetup_readAddress $end
     $var wire 1 "* registers $end
     $var wire 1 "D Decoder $end
     $var wire 1 "Y testHarness_registerSetup_setup $end
     $var wire 32 "[ testHarness_testUpdates_writeData $end
     $var wire 1 "` clock $end
      $scope module registers $end
       $var wire 1 % testHarness_testUpdates_writeEnable $end
       $var wire 1 & testHarness_setup_setup $end
       $var wire 32 - testHarness_testUpdates_writeData $end
       $var wire 5 0 readAddress1 $end
       $var wire 1 4 clock $end
       $var wire 32 5 io_readData1 $end
       $var wire 32 7 registerFile $end
       $var wire 1 = testHarness_setup_writeEnable $end
       $var wire 1 H writeEnable $end
       $var wire 5 L io_readAddress1 $end
       $var wire 5 ] testHarness_testUpdates_writeAddress $end
       $var wire 1 h io_writeEnable $end
       $var wire 32 s testHarness_setup_writeData $end
       $var wire 5 "5 testHarness_setup_readAddress $end
       $var wire 5 ": writeAddress $end
       $var wire 5 "G io_writeAddress $end
       $var wire 5 "H io_readAddress2 $end
        $scope module registerFile $end
          $scope module _T_33 $end
           $var wire 1 # en $end
           $var wire 1 ( pipeline_valid_0 $end
           $var wire 1 2 clk $end
           $var wire 5 a pipeline_addr_0 $end
           $var wire 1 f mask $end
           $var wire 1 y valid $end
           $var wire 5 "1 addr $end
           $var wire 32 "C pipeline_data_0 $end
           $var wire 32 "] data $end
          $upscope $end
          $scope module _T_41 $end
           $var wire 32 I data $end
           $var wire 1 ` en $end
           $var wire 1 ") clk $end
           $var wire 5 "U addr $end
          $upscope $end
          $scope module _T_38 $end
           $var wire 1 N clk $end
           $var wire 1 v en $end
           $var wire 5 "! addr $end
           $var wire 32 "Q data $end
          $upscope $end
        $upscope $end
      $upscope $end
      $scope module Decoder $end
       $var wire 1 "' io_controlSignals_regWrite $end
       $var wire 32 "; io_instruction_instruction $end
       $var wire 1 "N decodedControlSignals_1 $end
      $upscope $end
    $upscope $end
    $scope module MEM $end
     $var wire 1 ? DMEM $end
     $var wire 32 C testHarness_testUpdates_writeAddress $end
     $var wire 32 e testHarness_DMEMsetup_dataAddress $end
     $var wire 1 "- testHarness_testUpdates_writeEnable $end
     $var wire 1 "7 testHarness_DMEMsetup_writeEnable $end
     $var wire 32 "< testHarness_DMEMpeek $end
     $var wire 1 "M testHarness_DMEMsetup_setup $end
     $var wire 32 "T testHarness_testUpdates_writeData $end
     $var wire 1 "Z clock $end
     $var wire 32 "f testHarness_DMEMsetup_dataIn $end
      $scope module DMEM $end
       $var wire 32 ' testHarness_testUpdates_writeData $end
       $var wire 1 * _GEN_6 $end
       $var wire 12 1 data__T_24_addr_pipe_0 $end
       $var wire 1 < testHarness_testUpdates_writeEnable $end
       $var wire 32 A testHarness_setup_dataAddress $end
       $var wire 32 F testHarness_testUpdates_writeAddress $end
       $var wire 32 R addressSource $end
       $var wire 32 W data $end
       $var wire 1 ". testHarness_setup_writeEnable $end
       $var wire 1 "0 testHarness_setup_setup $end
       $var wire 1 "F clock $end
       $var wire 32 "O testHarness_setup_dataIn $end
       $var wire 32 "_ io_dataOut $end
        $scope module data $end
          $scope module _T_26 $end
           $var wire 1 " clk $end
           $var wire 12 K addr $end
           $var wire 32 S pipeline_data_0 $end
           $var wire 1 m pipeline_valid_0 $end
           $var wire 32 w data $end
           $var wire 1 "B en $end
           $var wire 12 "I pipeline_addr_0 $end
           $var wire 1 "S valid $end
           $var wire 1 "b mask $end
          $upscope $end
          $scope module _T_24 $end
           $var wire 32 ; data $end
           $var wire 1 ~ clk $end
           $var wire 1 "E en $end
           $var wire 12 "K addr $end
          $upscope $end
        $upscope $end
      $upscope $end
    $upscope $end
    $scope module IF $end
     $var wire 1 $ testHarness_IMEMsetup_setup $end
     $var wire 1 @ IMEM $end
     $var wire 32 G testHarness_IMEMsetup_instruction $end
     $var wire 32 _ PC $end
     $var wire 1 i clock $end
     $var wire 32 j testHarness_PC $end
     $var wire 1 "9 reset $end
     $var wire 32 "@ testHarness_IMEMsetup_address $end
     $var wire 32 "V io_instruction_instruction $end
     $var wire 32 "g _GEN_0 $end
      $scope module IMEM $end
       $var wire 32 9 testHarness_setupSignals_instruction $end
       $var wire 12 > instructions__T_20_addr_pipe_0 $end
       $var wire 1 X clock $end
       $var wire 32 u testHarness_setupSignals_address $end
       $var wire 1 | _GEN_4 $end
       $var wire 32 "$ io_instruction $end
       $var wire 1 "4 testHarness_setupSignals_setup $end
       $var wire 32 "J addressSource $end
       $var wire 32 "R testHarness_requestedAddress $end
       $var wire 32 "a io_instructionAddress $end
       $var wire 32 "e instructions $end
        $scope module instructions $end
          $scope module _T_18 $end
           $var wire 1 ) valid $end
           $var wire 1 6 mask $end
           $var wire 1 J pipeline_valid_0 $end
           $var wire 12 b addr $end
           $var wire 1 d clk $end
           $var wire 32 "( data $end
           $var wire 12 "+ pipeline_addr_0 $end
           $var wire 32 "W pipeline_data_0 $end
           $var wire 1 "c en $end
          $upscope $end
          $scope module _T_20 $end
           $var wire 1 V en $end
           $var wire 12 q addr $end
           $var wire 1 "& clk $end
           $var wire 32 "? data $end
          $upscope $end
        $upscope $end
      $upscope $end
    $upscope $end
    $scope module IFBarrier $end
     $var wire 32 3 io_instruction_out_instruction $end
     $var wire 32 Q io_instruction_in_instruction $end
    $upscope $end
  $upscope $end
  $scope module CPU.ID $end
  $upscope $end
$upscope $end
$enddefinitions $end
$dumpvars
b00000000000000000000000000000000 Y
0X
0"7
b00000000000000000000000000000000 '
b000000000000 K
b000000000000 "K
0&
b00000000000000000000000000000000 ">
0"c
0o
0=
b000000000000 b
b00000000000000000000000000000000 r
0"P
b00000000000000000000000000000000 "#
b00000000000000000000000000000000 "d
b00000000000000000000000000000000 l
b00000 ""
b00000000000000000000000000000000 "2
b00000000000000000000000000000000 :
b000000000000 "I
0m
b00000000000000000000000000000000 Q
0g
b00000 "H
0"F
0")
0~
1"b
b00000000000000000000000000000000 w
b000000000000 q
1"E
b00000000000000000000000000000000 "\
0)
b00000000000000000000000000000000 s
0H
b00000000000000000000000000000000 A
0@
b00000000000000000000000000000000 "C
b00000000000000000000000000000000 ;
0%
0v
0"j
b00000000000000000000000000000000 "R
b00000000000000000000000000000000 "=
0"8
b00000 "%
0p
b00000000000000000000000000000000 T
0!
b00000000000000000000000000000000 k
0"4
b00000 "!
b00000000000000000000000000000000 9
0"`
b00000000000000000000000000000000 e
b00000000000000000000000000000000 P
0O
0".
b00000000000000000000000000000000 3
b00000000000000000000000000000000 "g
0{
0"Z
1*
04
b00000000000000000000000000000000 "a
b00000000000000000000000000000000 "L
0`
b00000000000000000000000000000000 "/
0"*
b00000000000000000000000000000000 /
b000000000000 >
0E
b00000 Z
0(
b00000000000000000000000000000000 "]
b00000000000000000000000000000000 "@
0?
b00000000000000000000000000000000 "W
b00000 "G
b00000000000000000000000000000000 _
b00000000000000000000000000000000 -
1V
b00000000000000000000000000000000 "<
b00000000000000000000000000000000 D
0"N
0"9
b00000000000000000000000000000000 S
b00000000000000000000000000000000 j
0i
b00000000000000000000000000000000 U
0"3
b00000 a
b00000 L
0"
b00000000000000000000000000000000 "O
0N
0"-
b00000 [
b00000000000000000000000000000000 "f
b00000000000000000000000000000000 "Q
0"D
b00000 "1
b00000 ]
b00000000000000000000000000000000 I
0"'
b00000 t
0J
1|
b00000000000000000000000000000000 .
b00000 "5
b00000000000000000000000000000000 "(
0"B
b00000000000000000000000000000000 G
b000000000000 1
0"Y
b00000000000000000000000000000000 ^
b00000000000000000000000000000000 "$
b00000000000000000000000000000000 u
0"h
0"S
b00000000000000000000000000000000 ";
b00000000000000000000000000000000 C
0B
0"6
0n
0"M
0<
b00000000000000000000000000000000 "i
1f
b00000000000000000000000000000000 "?
b00000000000000000000000000000000 "T
b00000000000000000000000000000000 7
b00000000000000000000000000000000 "V
16
0M
08
0",
0#
b00000 0
b00000000000000000000000000000000 "e
b00000 "U
b000000000000 "+
0d
b00000 \
02
b00000 ":
b00000000000000000000000000000000 "J
b00000000000000000000000000000000 R
0"0
b00000000000000000000000000000000 5
0}
0h
b00000000000000000000000000000000 "[
0"^
b00000000000000000000000000000000 x
b00000000000000000000000000000000 c
0"A
b00000000000000000000000000000000 F
0y
b00000000000000000000000000000000 z
0"X
0"&
b00000000000000000000000000000000 +
b00000000000000000000000000000000 "_
b00000000000000000000000000000000 W
0,
0$
$end
#0
1"P
1"h
b00000000000000000000000000000100 "g
1"9
#1
1"`
14
1"
1}
1N
1i
1")
1X
12
1"Z
1~
1"F
1",
1d
1"&
#6
0i
0",
04
0X
0N
0"
0}
0")
0"`
0"&
0~
0"F
0"Z
0d
02
#11
1"`
14
1"
1}
1N
1i
1")
1X
12
1"Z
1~
1"F
1",
1d
1"&
#16
0i
0",
04
0X
0N
0"
0}
0")
0"`
0"&
0~
0"F
0"Z
0d
02
#21
1"`
14
1"
1}
1N
1i
1")
1X
12
1"Z
1~
1"F
1",
1d
1"&
#26
0i
0",
04
0X
0N
0"
0}
0")
0"`
0"&
0~
0"F
0"Z
0d
02
#31
1"`
14
1"
1}
1N
1i
1")
1X
12
1"Z
1~
1"F
1",
1d
1"&
#36
0i
0",
04
0X
0N
0"
0}
0")
0"`
0"&
0~
0"F
0"Z
0d
02
#41
1"`
14
1"
1}
1N
1i
1")
1X
12
1"Z
1~
1"F
1",
1d
1"&
#46
0i
04
b00000000000000000000000000010011 3
1"c
b00000000000000000000000000000000 "g
0}
1"0
0"&
0~
1&
b00000000000000000000000000010011 P
1{
0d
1"Y
1)
0"h
b00000000000000000000000000010011 ";
0",
b11100000100100011110000110010011 "=
0X
1"X
0"9
0N
b11100000100100011110000110010011 /
1"6
b00000000000000000000000000010011 "V
0"
1"4
0"`
0")
1"M
b11100000100100011110000110010011 "(
1o
b00000000000000000000000000010011 Q
0"F
0"Z
b11100000100100011110000110010011 9
02
0"P
b11100000100100011110000110010011 G
1$
#51
1J
1"`
14
1"
b11100000100100011110000110010011 "W
1}
1N
1i
b11100000100100011110000110010011 "$
1")
1X
12
1"Z
1~
b11100000100100011110000110010011 "?
1"F
1",
1d
1"&
#56
0i
b00000000000100011111000110110011 "=
0",
04
0X
b00000000000100011111000110110011 9
b00000000000100011111000110110011 "(
0N
b00000000000000000000000000000100 +
b00000000000000000000000000000100 "J
b00000000000000000000000000000100 u
0"
0}
0")
0"`
0"&
b00000000000100011111000110110011 G
0~
b00000000000000000000000000000100 :
0"F
0"Z
b00000000000100011111000110110011 /
0d
02
b00000000000000000000000000000100 "@
b000000000100 b
#61
1"`
14
b00000000000100011111000110110011 "W
1"
1}
b000000000100 "+
b000000000100 q
1N
1i
1")
1X
b00000000000100011111000110110011 "$
b000000000100 >
1"Z
1~
12
1"F
b00000000000100011111000110110011 "?
1",
1d
1"&
#66
0i
0",
04
0X
b00000000000000000000000000001000 u
0N
b00000000001000001101000100010011 G
b00000000000000000000000000001000 :
0"
0}
0")
0"`
b00000000000000000000000000001000 "@
b00000000001000001101000100010011 "(
b00000000001000001101000100010011 /
0"&
b00000000001000001101000100010011 9
0~
0"F
0"Z
0d
b00000000000000000000000000001000 "J
02
b00000000001000001101000100010011 "=
b000000001000 b
b00000000000000000000000000001000 +
#71
b000000001000 q
b000000001000 >
b00000000001000001101000100010011 "W
b000000001000 "+
1"`
14
1"
1}
1N
1i
b00000000001000001101000100010011 "?
1")
1X
12
1"Z
1~
1"F
1",
1d
1"&
b00000000001000001101000100010011 "$
#76
0i
b00000000000000000000000000001100 +
b00000000000000000000000000001100 :
0",
04
0X
b00000000001000001100000010110011 /
0N
b00000000000000000000000000001100 u
b00000000001000001100000010110011 G
0"
b00000000001000001100000010110011 "(
0}
0")
0"`
b000000001100 b
0"&
0~
b00000000000000000000000000001100 "J
0"F
0"Z
0d
b00000000000000000000000000001100 "@
02
b00000000001000001100000010110011 9
b00000000001000001100000010110011 "=
#81
b00000000001000001100000010110011 "$
1"`
14
1"
b000000001100 "+
b00000000001000001100000010110011 "?
1}
1N
1i
b000000001100 >
1")
1X
b000000001100 q
12
1"Z
1~
1"F
1",
b00000000001000001100000010110011 "W
1d
1"&
#86
0i
0",
04
0X
b00000000000000000000000000010000 "@
b00000000000000000000000000010000 "J
b00000000000000000000000000010000 u
b000000010000 b
0N
b00000000000100001110000100110011 "=
b00000000000100001110000100110011 9
b00000000000100001110000100110011 /
b00000000000100001110000100110011 "(
0"
0}
0")
0"`
0"&
0~
b00000000000000000000000000010000 :
0"F
b00000000000000000000000000010000 +
0"Z
b00000000000100001110000100110011 G
0d
02
#91
b00000000000100001110000100110011 "W
1"`
b000000010000 >
14
1"
b000000010000 q
b00000000000100001110000100110011 "?
1}
1N
1i
b00000000000100001110000100110011 "$
b000000010000 "+
1")
1X
12
1"Z
1~
1"F
1",
1d
1"&
#96
0i
0",
04
0X
0N
b00000011110100010100000010010011 "=
b00000011110100010100000010010011 /
b00000000000000000000000000010100 +
b000000010100 b
0"
b00000000000000000000000000010100 :
b00000011110100010100000010010011 G
0}
0")
0"`
b00000000000000000000000000010100 "J
0"&
0~
b00000000000000000000000000010100 u
b00000011110100010100000010010011 9
0"F
b00000011110100010100000010010011 "(
0"Z
0d
02
b00000000000000000000000000010100 "@
#101
b000000010100 >
b000000010100 q
b00000011110100010100000010010011 "$
1"`
14
1"
1}
1N
1i
b000000010100 "+
1")
1X
12
1"Z
b00000011110100010100000010010011 "W
1~
1"F
1",
1d
1"&
b00000011110100010100000010010011 "?
#106
0i
0",
b00000001001000010000000010010011 "(
04
0X
b00000001001000010000000010010011 /
b00000001001000010000000010010011 "=
b00000000000000000000000000011000 +
0N
b00000001001000010000000010010011 9
b000000011000 b
b00000000000000000000000000011000 :
0"
0}
0")
0"`
b00000000000000000000000000011000 "@
0"&
0~
b00000000000000000000000000011000 u
0"F
0"Z
b00000001001000010000000010010011 G
0d
b00000000000000000000000000011000 "J
02
#111
b00000001001000010000000010010011 "W
b00000001001000010000000010010011 "?
1"`
14
1"
1}
b00000001001000010000000010010011 "$
1N
1i
b000000011000 >
b000000011000 "+
1")
1X
b000000011000 q
1"Z
1~
12
1"F
1",
1d
1"&
#116
0i
0",
04
0X
b00000000001000011000000010110011 /
0N
b00000000000000000000000000011100 :
0"
b00000000000000000000000000011100 u
0}
0")
0"`
b00000000001000011000000010110011 "(
0"&
0~
0"F
b00000000000000000000000000011100 "@
0"Z
0d
b00000000001000011000000010110011 9
02
b00000000001000011000000010110011 "=
b00000000000000000000000000011100 +
b00000000001000011000000010110011 G
b00000000000000000000000000011100 "J
b000000011100 b
#121
1"`
14
b000000011100 >
1"
1}
b000000011100 "+
1N
1i
b00000000001000011000000010110011 "$
1")
1X
b00000000001000011000000010110011 "W
b000000011100 q
1"Z
1~
12
1"F
1",
1d
1"&
b00000000001000011000000010110011 "?
#126
0i
0",
b11111011100000001110000110010011 9
04
0X
b00000000000000000000000000100000 +
b000000100000 b
0N
b11111011100000001110000110010011 G
0"
0}
0")
0"`
b00000000000000000000000000100000 "@
0"&
0~
b00000000000000000000000000100000 u
b00000000000000000000000000100000 :
0"F
b11111011100000001110000110010011 /
0"Z
b11111011100000001110000110010011 "(
0d
b00000000000000000000000000100000 "J
b11111011100000001110000110010011 "=
02
#131
1"`
14
b11111011100000001110000110010011 "W
1"
b11111011100000001110000110010011 "$
1}
1N
1i
1")
1X
b000000100000 q
12
1"Z
1~
b000000100000 "+
1"F
b11111011100000001110000110010011 "?
1",
1d
1"&
b000000100000 >
#136
0i
b000000100100 b
b00000000000100001001000010110011 9
0",
04
0X
b00000000000000000000000000100100 +
0N
b00000000000100001001000010110011 "(
b00000000000000000000000000100100 :
0"
0}
0")
0"`
b00000000000100001001000010110011 G
b00000000000100001001000010110011 "=
b00000000000100001001000010110011 /
0"&
0~
0"F
0"Z
b00000000000000000000000000100100 u
0d
02
b00000000000000000000000000100100 "@
b00000000000000000000000000100100 "J
#141
b00000000000100001001000010110011 "W
b00000000000100001001000010110011 "$
1"`
b000000100100 "+
14
b000000100100 >
1"
1}
1N
b000000100100 q
1i
b00000000000100001001000010110011 "?
1")
1X
12
1"Z
1~
1"F
1",
1d
1"&
#146
0i
b000000101000 b
0",
04
0X
0N
b00000000000100011001000100110011 9
0"
0}
0")
0"`
b00000000000000000000000000101000 :
0"&
0~
0"F
b00000000000100011001000100110011 "=
0"Z
b00000000000000000000000000101000 "@
0d
b00000000000100011001000100110011 "(
02
b00000000000000000000000000101000 "J
b00000000000100011001000100110011 /
b00000000000000000000000000101000 +
b00000000000000000000000000101000 u
b00000000000100011001000100110011 G
#151
b00000000000100011001000100110011 "$
b000000101000 >
b00000000000100011001000100110011 "?
1"`
14
1"
1}
1N
1i
b000000101000 q
1")
1X
b00000000000100011001000100110011 "W
b000000101000 "+
12
1"Z
1~
1"F
1",
1d
1"&
#156
0i
0",
b00000000000100011010000010110011 "=
04
0X
0N
b00000000000100011010000010110011 /
0"
0}
0")
0"`
b00000000000000000000000000101100 :
b00000000000000000000000000101100 +
b00000000000000000000000000101100 u
b000000101100 b
0"&
0~
0"F
0"Z
b00000000000100011010000010110011 G
0d
02
b00000000000100011010000010110011 9
b00000000000000000000000000101100 "J
b00000000000100011010000010110011 "(
b00000000000000000000000000101100 "@
#161
b00000000000100011010000010110011 "W
1"`
14
b000000101100 "+
b000000101100 >
1"
b000000101100 q
1}
1N
1i
b00000000000100011010000010110011 "$
1")
1X
12
1"Z
1~
1"F
b00000000000100011010000010110011 "?
1",
1d
1"&
#166
0i
b01000000010100011101000110010011 9
0",
b00000000000000000000000000110000 "J
04
0X
b01000000010100011101000110010011 /
0N
0"
0}
0")
0"`
b00000000000000000000000000110000 "@
0"&
b00000000000000000000000000110000 u
0~
b00000000000000000000000000110000 +
0"F
0"Z
b00000000000000000000000000110000 :
0d
b01000000010100011101000110010011 G
b01000000010100011101000110010011 "(
02
b01000000010100011101000110010011 "=
b000000110000 b
#171
1"`
b000000110000 >
b000000110000 "+
b01000000010100011101000110010011 "W
14
1"
1}
1N
1i
b000000110000 q
1")
1X
b01000000010100011101000110010011 "?
1"Z
1~
12
1"F
1",
1d
1"&
b01000000010100011101000110010011 "$
#176
0i
b00000000000000000000000000110100 "J
b000000110100 b
0",
04
0X
b00000000011100001001000010010011 /
0N
b00000000011100001001000010010011 G
0"
0}
0")
0"`
b00000000011100001001000010010011 "=
b00000000000000000000000000110100 +
b00000000000000000000000000110100 :
b00000000000000000000000000110100 u
0"&
0~
0"F
0"Z
0d
02
b00000000011100001001000010010011 9
b00000000011100001001000010010011 "(
b00000000000000000000000000110100 "@
#181
b00000000011100001001000010010011 "W
1"`
b00000000011100001001000010010011 "$
14
1"
b00000000011100001001000010010011 "?
b000000110100 q
1}
1N
1i
b000000110100 >
b000000110100 "+
1")
1X
12
1"Z
1~
1"F
1",
1d
1"&
#186
0i
0",
04
0X
0N
b01000000001000011000000100110011 "=
b00000000000000000000000000111000 u
b000000111000 b
0"
0}
0")
0"`
b00000000000000000000000000111000 "@
0"&
0~
b00000000000000000000000000111000 +
0"F
0"Z
b01000000001000011000000100110011 "(
0d
02
b00000000000000000000000000111000 :
b01000000001000011000000100110011 G
b01000000001000011000000100110011 /
b00000000000000000000000000111000 "J
b01000000001000011000000100110011 9
#191
1"`
14
1"
1}
1N
1i
b000000111000 q
1")
1X
b000000111000 >
b000000111000 "+
12
1"Z
1~
b01000000001000011000000100110011 "?
1"F
b01000000001000011000000100110011 "W
1",
1d
1"&
b01000000001000011000000100110011 "$
#196
0i
0",
04
0X
b00000010110100011111000010010011 /
0N
0"
b000000111100 b
b00000000000000000000000000111100 "J
0}
0")
0"`
b00000000000000000000000000111100 :
b00000000000000000000000000111100 +
b00000000000000000000000000111100 "@
b00000000000000000000000000111100 u
0"&
0~
0"F
0"Z
0d
b00000010110100011111000010010011 G
02
b00000010110100011111000010010011 "(
b00000010110100011111000010010011 "=
b00000010110100011111000010010011 9
#201
1"`
14
b000000111100 >
1"
1}
b000000111100 q
1N
1i
b00000010110100011111000010010011 "W
1")
b000000111100 "+
1X
b00000010110100011111000010010011 "?
12
1"Z
1~
b00000010110100011111000010010011 "$
1"F
1",
1d
1"&
#206
0i
0",
04
0X
b01000000001000011000000110110011 /
b00000000000000000000000001000000 u
0N
b00000000000000000000000001000000 "J
0"
0}
0")
0"`
b000001000000 b
0"&
b01000000001000011000000110110011 G
0~
b00000000000000000000000001000000 "@
0"F
0"Z
b01000000001000011000000110110011 "=
0d
02
b01000000001000011000000110110011 "(
b00000000000000000000000001000000 +
b01000000001000011000000110110011 9
b00000000000000000000000001000000 :
#211
b000001000000 q
b01000000001000011000000110110011 "$
1"`
14
1"
b000001000000 >
1}
b000001000000 "+
b01000000001000011000000110110011 "?
1N
1i
1")
1X
12
1"Z
1~
b01000000001000011000000110110011 "W
1"F
1",
1d
1"&
#216
0i
0",
04
0X
b00000000000000000000000001000100 "J
b01000000010100011101000010010011 G
0N
b01000000010100011101000010010011 "(
0"
b00000000000000000000000001000100 +
0}
0")
0"`
b00000000000000000000000001000100 :
b01000000010100011101000010010011 9
0"&
0~
b00000000000000000000000001000100 u
b00000000000000000000000001000100 "@
0"F
b000001000100 b
0"Z
b01000000010100011101000010010011 /
0d
02
b01000000010100011101000010010011 "=
#221
b01000000010100011101000010010011 "$
1"`
14
1"
1}
1N
1i
b000001000100 q
1")
1X
b000001000100 "+
b01000000010100011101000010010011 "W
12
1"Z
1~
1"F
b000001000100 >
1",
1d
1"&
b01000000010100011101000010010011 "?
#226
0i
0",
04
0X
b00000000000000000000000001001000 :
0N
b00000000001000001110000100110011 "(
b00000000000000000000000001001000 +
b00000000001000001110000100110011 /
0"
b00000000001000001110000100110011 9
b00000000000000000000000001001000 u
0}
0")
0"`
b00000000001000001110000100110011 G
b00000000000000000000000001001000 "@
b000001001000 b
0"&
0~
0"F
0"Z
0d
b00000000000000000000000001001000 "J
02
b00000000001000001110000100110011 "=
#231
b000001001000 q
b000001001000 >
1"`
14
1"
b000001001000 "+
1}
1N
1i
1")
1X
b00000000001000001110000100110011 "W
12
1"Z
1~
1"F
b00000000001000001110000100110011 "?
1",
1d
1"&
b00000000001000001110000100110011 "$
#236
0i
0",
04
0X
b11110101010000011100000010010011 /
b00000000000000000000000001001100 u
0N
b00000000000000000000000001001100 "@
0"
b00000000000000000000000001001100 :
0}
0")
0"`
b11110101010000011100000010010011 G
0"&
b00000000000000000000000001001100 "J
0~
0"F
0"Z
0d
b11110101010000011100000010010011 "=
02
b11110101010000011100000010010011 "(
b000001001100 b
b00000000000000000000000001001100 +
b11110101010000011100000010010011 9
#241
b11110101010000011100000010010011 "$
1"`
14
b000001001100 >
1"
1}
b11110101010000011100000010010011 "W
b11110101010000011100000010010011 "?
1N
1i
1")
1X
12
1"Z
1~
1"F
1",
1d
1"&
b000001001100 q
b000001001100 "+
#246
0i
b00000000000100010001000010110011 /
b00000000000100010001000010110011 "(
0",
04
0X
b00000000000000000000000001010000 "@
0N
b00000000000000000000000001010000 u
b00000000000100010001000010110011 "=
b000001010000 b
b00000000000100010001000010110011 G
0"
0}
0")
0"`
b00000000000000000000000001010000 "J
b00000000000100010001000010110011 9
b00000000000000000000000001010000 +
0"&
0~
0"F
0"Z
0d
02
b00000000000000000000000001010000 :
#251
1"`
14
1"
1}
b00000000000100010001000010110011 "?
1N
1i
b00000000000100010001000010110011 "$
1")
1X
b000001010000 q
12
b00000000000100010001000010110011 "W
1"Z
1~
b000001010000 >
1"F
b000001010000 "+
1",
1d
1"&
#256
0i
b00000000000000000000000001010100 +
0",
04
0X
b01000000001000011000000110110011 /
0N
b000001010100 b
0"
0}
0")
0"`
b00000000000000000000000001010100 "J
b00000000000000000000000001010100 u
0"&
b01000000001000011000000110110011 G
0~
0"F
0"Z
b01000000001000011000000110110011 "=
0d
02
b01000000001000011000000110110011 "(
b00000000000000000000000001010100 "@
b00000000000000000000000001010100 :
b01000000001000011000000110110011 9
#261
b01000000001000011000000110110011 "$
1"`
14
1"
1}
b000001010100 "+
b01000000001000011000000110110011 "?
1N
1i
1")
1X
12
1"Z
1~
b01000000001000011000000110110011 "W
1"F
b000001010100 >
1",
1d
b000001010100 q
1"&
#266
0i
0",
04
0X
b000001011000 b
b00000000000000000000000001011000 :
b00000000001000010000000010110011 9
0N
b00000000001000010000000010110011 "=
b00000000000000000000000001011000 "J
0"
b00000000000000000000000001011000 u
0}
0")
0"`
b00000000001000010000000010110011 /
0"&
0~
b00000000001000010000000010110011 G
b00000000000000000000000001011000 +
0"F
0"Z
b00000000000000000000000001011000 "@
0d
02
b00000000001000010000000010110011 "(
#271
b00000000001000010000000010110011 "W
1"`
14
b00000000001000010000000010110011 "?
1"
1}
1N
b000001011000 >
1i
b000001011000 q
1")
1X
12
1"Z
1~
1"F
1",
b000001011000 "+
1"&
1d
b00000000001000010000000010110011 "$
#276
0i
b00000000000100011001000010110011 "(
0",
04
0X
b00000000000000000000000001011100 +
b00000000000000000000000001011100 "@
0N
b00000000000000000000000001011100 :
0"
0}
0")
0"`
b000001011100 b
b00000000000100011001000010110011 9
b00000000000100011001000010110011 G
0"&
0~
0"F
0"Z
b00000000000000000000000001011100 u
0d
b00000000000000000000000001011100 "J
02
b00000000000100011001000010110011 "=
b00000000000100011001000010110011 /
#281
b000001011100 >
1"`
14
b000001011100 q
1"
1}
1N
1i
1")
1X
b00000000000100011001000010110011 "?
b000001011100 "+
12
1"Z
1~
1"F
1",
b00000000000100011001000010110011 "W
1d
1"&
b00000000000100011001000010110011 "$
#286
0i
0",
04
0X
b00000000001000010000000110110011 9
b00000000001000010000000110110011 /
0N
b00000000001000010000000110110011 G
0"
0}
0")
0"`
b00000000001000010000000110110011 "=
b00000000000000000000000001100000 +
0"&
0~
b00000000000000000000000001100000 u
b00000000000000000000000001100000 "@
0"F
0"Z
0d
b00000000000000000000000001100000 "J
b000001100000 b
02
b00000000000000000000000001100000 :
b00000000001000010000000110110011 "(
#291
b00000000001000010000000110110011 "?
b00000000001000010000000110110011 "W
b00000000001000010000000110110011 "$
1"`
14
1"
1}
1N
1i
b000001100000 >
b000001100000 q
1")
1X
12
1"Z
1~
b000001100000 "+
1"F
1",
1d
1"&
#296
0i
b00000000000000000000000001100100 +
0",
b11100110100000010110000110010011 9
04
0X
b11100110100000010110000110010011 "(
b11100110100000010110000110010011 /
0N
b11100110100000010110000110010011 "=
0"
0}
0")
0"`
0"&
0~
b11100110100000010110000110010011 G
b00000000000000000000000001100100 u
b00000000000000000000000001100100 "J
b000001100100 b
0"F
0"Z
0d
02
b00000000000000000000000001100100 "@
b00000000000000000000000001100100 :
