waveforms/forward1.s.vcd
$date
2021-06-19T14:52+0000
$end
$version
0.2
$end
$comment

$end
$timescale 1ns  $end
$scope module Tile $end
 $var wire 1 , io_regsWriteEnable $end
 $var wire 32 . io_regsReadData $end
 $var wire 32 : io_IMEMAddress $end
 $var wire 1 B io_regsDeviceWriteEnable $end
 $var wire 32 U io_DMEMAddress $end
 $var wire 32 k io_DMEMWriteData $end
 $var wire 1 n CPU $end
 $var wire 32 r io_regsDeviceWriteData $end
 $var wire 5 t io_regsDeviceWriteAddress $end
 $var wire 1 } clock $end
 $var wire 32 "# io_currentPC $end
 $var wire 5 "% io_regsAddress $end
 $var wire 32 "2 io_memDeviceWriteAddress $end
 $var wire 1 "3 io_DMEMWriteEnable $end
 $var wire 32 "= io_IMEMWriteData $end
 $var wire 32 "> io_memDeviceWriteData $end
 $var wire 32 "L io_DMEMReadData $end
 $var wire 1 "P reset $end
 $var wire 1 "X io_setup $end
 $var wire 1 "^ io_memDeviceWriteEnable $end
 $var wire 32 "i io_regsWriteData $end
  $scope module CPU.MEM $end
  $upscope $end
  $scope module CPU.ID.registers $end
  $upscope $end
  $scope module CPU.IFBarrier $end
  $upscope $end
  $scope module CPU.IF $end
  $upscope $end
  $scope module CPU.IF.IMEM $end
  $upscope $end
  $scope module CPU.MEM.DMEM $end
  $upscope $end
  $scope module CPU.ID.Decoder $end
  $upscope $end
  $scope module CPU $end
   $var wire 32 + testHarness_setupSignals_IMEMsignals_address $end
   $var wire 32 / testHarness_setupSignals_IMEMsignals_instruction $end
   $var wire 1 8 testHarness_regUpdates_writeEnable $end
   $var wire 1 E ID $end
   $var wire 1 O testHarness_memUpdates_writeEnable $end
   $var wire 32 Y testHarness_regUpdates_writeData $end
   $var wire 5 [ testHarness_setupSignals_registerSignals_readAddress $end
   $var wire 5 \ testHarness_regUpdates_writeAddress $end
   $var wire 32 ^ testHarness_testReadouts_registerRead $end
   $var wire 32 c testHarness_currentPC $end
   $var wire 1 g IF $end
   $var wire 32 l testHarness_memUpdates_writeAddress $end
   $var wire 1 o testHarness_setupSignals_DMEMsignals_setup $end
   $var wire 1 p IFBarrier $end
   $var wire 32 x testHarness_testReadouts_DMEMread $end
   $var wire 32 z testHarness_setupSignals_DMEMsignals_dataIn $end
   $var wire 1 { testHarness_setupSignals_IMEMsignals_setup $end
   $var wire 1 ", clock $end
   $var wire 32 "/ testHarness_setupSignals_DMEMsignals_dataAddress $end
   $var wire 1 "6 testHarness_setupSignals_registerSignals_setup $end
   $var wire 1 "8 MEM $end
   $var wire 1 "A testHarness_setupSignals_registerSignals_writeEnable $end
   $var wire 32 "\ testHarness_memUpdates_writeData $end
   $var wire 32 "d testHarness_setupSignals_registerSignals_writeData $end
   $var wire 1 "h reset $end
   $var wire 1 "j testHarness_setupSignals_DMEMsignals_writeEnable $end
    $scope module ID $end
     $var wire 1 ! testHarness_registerSetup_writeEnable $end
     $var wire 32 D testHarness_registerPeek $end
     $var wire 1 M testHarness_testUpdates_writeEnable $end
     $var wire 32 P io_instruction_instruction $end
     $var wire 32 T testHarness_registerSetup_writeData $end
     $var wire 5 Z testHarness_testUpdates_writeAddress $end
     $var wire 5 "" testHarness_registerSetup_readAddress $end
     $var wire 1 "* registers $end
     $var wire 1 "D Decoder $end
     $var wire 1 "Y testHarness_registerSetup_setup $end
     $var wire 32 "[ testHarness_testUpdates_writeData $end
     $var wire 1 "` clock $end
      $scope module registers $end
       $var wire 1 % testHarness_testUpdates_writeEnable $end
       $var wire 1 & testHarness_setup_setup $end
       $var wire 32 - testHarness_testUpdates_writeData $end
       $var wire 5 0 readAddress1 $end
       $var wire 1 4 clock $end
       $var wire 32 5 io_readData1 $end
       $var wire 32 7 registerFile $end
       $var wire 1 = testHarness_setup_writeEnable $end
       $var wire 1 H writeEnable $end
       $var wire 5 L io_readAddress1 $end
       $var wire 5 ] testHarness_testUpdates_writeAddress $end
       $var wire 1 h io_writeEnable $end
       $var wire 32 s testHarness_setup_writeData $end
       $var wire 5 "5 testHarness_setup_readAddress $end
       $var wire 5 ": writeAddress $end
       $var wire 5 "G io_writeAddress $end
       $var wire 5 "H io_readAddress2 $end
        $scope module registerFile $end
          $scope module _T_33 $end
           $var wire 1 # en $end
           $var wire 1 ( pipeline_valid_0 $end
           $var wire 1 2 clk $end
           $var wire 5 a pipeline_addr_0 $end
           $var wire 1 f mask $end
           $var wire 1 y valid $end
           $var wire 5 "1 addr $end
           $var wire 32 "C pipeline_data_0 $end
           $var wire 32 "] data $end
          $upscope $end
          $scope module _T_41 $end
           $var wire 32 I data $end
           $var wire 1 ` en $end
           $var wire 1 ") clk $end
           $var wire 5 "U addr $end
          $upscope $end
          $scope module _T_38 $end
           $var wire 1 N clk $end
           $var wire 1 v en $end
           $var wire 5 "! addr $end
           $var wire 32 "Q data $end
          $upscope $end
        $upscope $end
      $upscope $end
      $scope module Decoder $end
       $var wire 1 "' io_controlSignals_regWrite $end
       $var wire 32 "; io_instruction_instruction $end
       $var wire 1 "N decodedControlSignals_1 $end
      $upscope $end
    $upscope $end
    $scope module MEM $end
     $var wire 1 ? DMEM $end
     $var wire 32 C testHarness_testUpdates_writeAddress $end
     $var wire 32 e testHarness_DMEMsetup_dataAddress $end
     $var wire 1 "- testHarness_testUpdates_writeEnable $end
     $var wire 1 "7 testHarness_DMEMsetup_writeEnable $end
     $var wire 32 "< testHarness_DMEMpeek $end
     $var wire 1 "M testHarness_DMEMsetup_setup $end
     $var wire 32 "T testHarness_testUpdates_writeData $end
     $var wire 1 "Z clock $end
     $var wire 32 "f testHarness_DMEMsetup_dataIn $end
      $scope module DMEM $end
       $var wire 32 ' testHarness_testUpdates_writeData $end
       $var wire 1 * _GEN_6 $end
       $var wire 12 1 data__T_24_addr_pipe_0 $end
       $var wire 1 < testHarness_testUpdates_writeEnable $end
       $var wire 32 A testHarness_setup_dataAddress $end
       $var wire 32 F testHarness_testUpdates_writeAddress $end
       $var wire 32 R addressSource $end
       $var wire 32 W data $end
       $var wire 1 ". testHarness_setup_writeEnable $end
       $var wire 1 "0 testHarness_setup_setup $end
       $var wire 1 "F clock $end
       $var wire 32 "O testHarness_setup_dataIn $end
       $var wire 32 "_ io_dataOut $end
        $scope module data $end
          $scope module _T_26 $end
           $var wire 1 " clk $end
           $var wire 12 K addr $end
           $var wire 32 S pipeline_data_0 $end
           $var wire 1 m pipeline_valid_0 $end
           $var wire 32 w data $end
           $var wire 1 "B en $end
           $var wire 12 "I pipeline_addr_0 $end
           $var wire 1 "S valid $end
           $var wire 1 "b mask $end
          $upscope $end
          $scope module _T_24 $end
           $var wire 32 ; data $end
           $var wire 1 ~ clk $end
           $var wire 1 "E en $end
           $var wire 12 "K addr $end
          $upscope $end
        $upscope $end
      $upscope $end
    $upscope $end
    $scope module IF $end
     $var wire 1 $ testHarness_IMEMsetup_setup $end
     $var wire 1 @ IMEM $end
     $var wire 32 G testHarness_IMEMsetup_instruction $end
     $var wire 32 _ PC $end
     $var wire 1 i clock $end
     $var wire 32 j testHarness_PC $end
     $var wire 1 "9 reset $end
     $var wire 32 "@ testHarness_IMEMsetup_address $end
     $var wire 32 "V io_instruction_instruction $end
     $var wire 32 "g _GEN_0 $end
      $scope module IMEM $end
       $var wire 32 9 testHarness_setupSignals_instruction $end
       $var wire 12 > instructions__T_20_addr_pipe_0 $end
       $var wire 1 X clock $end
       $var wire 32 u testHarness_setupSignals_address $end
       $var wire 1 | _GEN_4 $end
       $var wire 32 "$ io_instruction $end
       $var wire 1 "4 testHarness_setupSignals_setup $end
       $var wire 32 "J addressSource $end
       $var wire 32 "R testHarness_requestedAddress $end
       $var wire 32 "a io_instructionAddress $end
       $var wire 32 "e instructions $end
        $scope module instructions $end
          $scope module _T_18 $end
           $var wire 1 ) valid $end
           $var wire 1 6 mask $end
           $var wire 1 J pipeline_valid_0 $end
           $var wire 12 b addr $end
           $var wire 1 d clk $end
           $var wire 32 "( data $end
           $var wire 12 "+ pipeline_addr_0 $end
           $var wire 32 "W pipeline_data_0 $end
           $var wire 1 "c en $end
          $upscope $end
          $scope module _T_20 $end
           $var wire 1 V en $end
           $var wire 12 q addr $end
           $var wire 1 "& clk $end
           $var wire 32 "? data $end
          $upscope $end
        $upscope $end
      $upscope $end
    $upscope $end
    $scope module IFBarrier $end
     $var wire 32 3 io_instruction_out_instruction $end
     $var wire 32 Q io_instruction_in_instruction $end
    $upscope $end
  $upscope $end
  $scope module CPU.ID $end
  $upscope $end
$upscope $end
$enddefinitions $end
$dumpvars
0X
b00000000000000000000000000000000 Y
0"7
0&
b00000000000000000000000000000000 '
b000000000000 K
b000000000000 "K
b00000000000000000000000000000000 ">
0o
0"c
0=
b000000000000 b
b00000000000000000000000000000000 r
0"P
b00000000000000000000000000000000 "#
b00000000000000000000000000000000 "d
b00000000000000000000000000000000 l
b00000 ""
b00000000000000000000000000000000 "2
b00000000000000000000000000000000 :
b000000000000 "I
0m
b00000000000000000000000000000000 Q
0g
b00000 "H
0"F
0")
0~
1"b
b00000000000000000000000000000000 w
b000000000000 q
1"E
b00000000000000000000000000000000 "\
0)
b00000000000000000000000000000000 s
0H
b00000000000000000000000000000000 A
0@
b00000000000000000000000000000000 "C
b00000000000000000000000000000000 ;
0%
0v
0"j
b00000000000000000000000000000000 "R
b00000000000000000000000000000000 "=
0"8
b00000 "%
0p
b00000000000000000000000000000000 T
0!
b00000000000000000000000000000000 k
b00000 "!
0"4
b00000000000000000000000000000000 9
0"`
b00000000000000000000000000000000 e
0O
b00000000000000000000000000000000 P
0".
b00000000000000000000000000000000 3
b00000000000000000000000000000000 "g
0{
0"Z
1*
04
b00000000000000000000000000000000 "a
b00000000000000000000000000000000 "L
0`
b00000000000000000000000000000000 "/
0"*
b00000000000000000000000000000000 /
b000000000000 >
0E
b00000 Z
0(
b00000000000000000000000000000000 "]
b00000000000000000000000000000000 "@
0?
b00000 "G
b00000000000000000000000000000000 "W
b00000000000000000000000000000000 _
b00000000000000000000000000000000 -
1V
b00000000000000000000000000000000 "<
b00000000000000000000000000000000 D
0"N
0"9
b00000000000000000000000000000000 S
0i
b00000000000000000000000000000000 j
b00000000000000000000000000000000 U
0"3
b00000 a
b00000 L
0"
b00000000000000000000000000000000 "O
0N
0"-
b00000 [
b00000000000000000000000000000000 "f
b00000000000000000000000000000000 "Q
0"D
b00000 "1
b00000 ]
b00000000000000000000000000000000 I
0"'
b00000 t
0J
1|
b00000000000000000000000000000000 .
b00000 "5
b00000000000000000000000000000000 "(
0"B
b00000000000000000000000000000000 G
0"Y
b000000000000 1
b00000000000000000000000000000000 ^
b00000000000000000000000000000000 "$
b00000000000000000000000000000000 u
0"h
0"S
b00000000000000000000000000000000 ";
b00000000000000000000000000000000 C
0"6
0B
0n
0"M
0<
b00000000000000000000000000000000 "i
b00000000000000000000000000000000 "T
1f
b00000000000000000000000000000000 "?
b00000000000000000000000000000000 7
b00000000000000000000000000000000 "V
16
0M
08
0#
0",
b00000 0
b00000000000000000000000000000000 "e
b00000 "U
b000000000000 "+
0d
b00000 \
02
b00000 ":
b00000000000000000000000000000000 "J
b00000000000000000000000000000000 R
0"0
b00000000000000000000000000000000 5
0}
0h
0"^
b00000000000000000000000000000000 x
b00000000000000000000000000000000 c
b00000000000000000000000000000000 "[
0"A
b00000000000000000000000000000000 F
0y
b00000000000000000000000000000000 z
0"X
0"&
b00000000000000000000000000000000 +
b00000000000000000000000000000000 "_
b00000000000000000000000000000000 W
0,
0$
$end
#0
1"h
b00000000000000000000000000000100 "g
1"P
1"9
#1
1",
1X
14
1i
1")
1N
1"Z
1"&
12
1}
1d
1"`
1~
1"
1"F
#6
0"`
0~
0}
02
04
0"&
0d
0"
0N
0")
0",
0i
0"F
0X
0"Z
#11
1",
1X
14
1i
1")
1N
1"Z
1"&
12
1}
1d
1"`
1~
1"
1"F
#16
0"`
0~
0}
02
04
0"&
0d
0"
0N
0")
0",
0i
0"F
0X
0"Z
#21
1",
1X
14
1i
1")
1N
1"Z
1"&
12
1}
1d
1"`
1~
1"
1"F
#26
0"`
0~
0}
02
04
0"&
0d
0"
0N
0")
0",
0i
0"F
0X
0"Z
#31
1",
1X
14
1i
1")
1N
1"Z
1"&
12
1}
1d
1"`
1~
1"
1"F
#36
0"`
0~
0}
02
04
0"&
0d
0"
0N
0")
0",
0i
0"F
0X
0"Z
#41
1",
1X
14
1i
1")
1N
1"Z
1"&
12
1}
1d
1"`
1~
1"
1"F
#46
1$
0}
b00011010111000001011000110010011 9
b00000000000000000000000000010011 Q
1"c
b00000000000000000000000000010011 3
04
0"9
0"&
1"0
0d
0",
b00000000000000000000000000010011 P
1"Y
0i
0"F
b00011010111000001011000110010011 "(
b00000000000000000000000000000000 "g
0"`
0~
0"h
b00000000000000000000000000010011 "V
02
1&
b00011010111000001011000110010011 /
1o
1)
1"6
0N
0"
0")
b00000000000000000000000000010011 ";
0"P
1"M
0X
1"X
1"4
b00011010111000001011000110010011 "=
1{
0"Z
b00011010111000001011000110010011 G
#51
b00011010111000001011000110010011 "$
1",
1X
14
1i
1")
b00011010111000001011000110010011 "W
1N
1"Z
1"&
12
b00011010111000001011000110010011 "?
1}
1J
1d
1"`
1~
1"
1"F
#56
0"`
0~
0}
b00000000010100010101000100010011 G
02
04
0"&
b00000000000000000000000000000100 :
b000000000100 b
0d
0"
0N
0")
0",
0i
b00000000000000000000000000000100 u
0"F
b00000000000000000000000000000100 "J
b00000000000000000000000000000100 "@
0X
b00000000010100010101000100010011 9
b00000000010100010101000100010011 "(
0"Z
b00000000010100010101000100010011 /
b00000000000000000000000000000100 +
b00000000010100010101000100010011 "=
#61
1",
1X
b000000000100 >
b00000000010100010101000100010011 "W
14
1i
1")
1N
1"Z
1"&
12
1}
b00000000010100010101000100010011 "?
1d
1"`
1~
b000000000100 "+
1"
b000000000100 q
1"F
b00000000010100010101000100010011 "$
#66
b00000000000000000000000000001000 :
0"`
0~
0}
b00010111011100010000000010010011 9
02
04
b000000001000 b
0"&
b00000000000000000000000000001000 "@
b00010111011100010000000010010011 "(
b00000000000000000000000000001000 "J
0d
0"
0N
0")
0",
0i
0"F
b00010111011100010000000010010011 G
0X
b00010111011100010000000010010011 "=
0"Z
b00010111011100010000000010010011 /
b00000000000000000000000000001000 +
b00000000000000000000000000001000 u
#71
1",
b000000001000 >
1X
b00010111011100010000000010010011 "?
b000000001000 q
14
1i
1")
b00010111011100010000000010010011 "$
1N
1"Z
1"&
12
1}
1d
b000000001000 "+
b00010111011100010000000010010011 "W
1"`
1~
1"
1"F
#76
b00000000000000000000000000001100 u
0"`
0~
0}
b000000001100 b
b00000000000000000000000000001100 :
02
b01000000001100001101000100010011 G
04
b01000000001100001101000100010011 "(
0"&
b00000000000000000000000000001100 +
0d
0"
0N
0")
0",
0i
b01000000001100001101000100010011 9
0"F
b01000000001100001101000100010011 "=
b00000000000000000000000000001100 "J
b00000000000000000000000000001100 "@
0X
b01000000001100001101000100010011 /
0"Z
#81
1",
1X
b000000001100 >
b000000001100 "+
14
1i
1")
b01000000001100001101000100010011 "$
1N
1"Z
1"&
12
b01000000001100001101000100010011 "W
1}
1d
b000000001100 q
1"`
1~
b01000000001100001101000100010011 "?
1"
1"F
#86
0"`
0~
0}
02
b00000000000000000000000000010000 u
04
0"&
b00000000000000000000000000010000 :
b01000000001000001000000100110011 9
0d
0"
0N
0")
0",
0i
b01000000001000001000000100110011 /
0"F
b01000000001000001000000100110011 G
b000000010000 b
b01000000001000001000000100110011 "(
b00000000000000000000000000010000 "J
0X
b00000000000000000000000000010000 "@
b01000000001000001000000100110011 "=
0"Z
b00000000000000000000000000010000 +
#91
1",
1X
b01000000001000001000000100110011 "W
b01000000001000001000000100110011 "?
14
1i
1")
1N
1"Z
1"&
12
1}
1d
b000000010000 >
b000000010000 "+
1~
1"`
1"
b000000010000 q
b01000000001000001000000100110011 "$
1"F
#96
b00000000000000000000000000010100 u
0"`
0~
0}
02
b00000000101100001001000100010011 "(
b00000000000000000000000000010100 "J
04
0"&
b00000000000000000000000000010100 "@
0d
0"
0N
0")
0",
0i
b00000000101100001001000100010011 "=
0"F
b000000010100 b
b00000000101100001001000100010011 9
b00000000101100001001000100010011 /
0X
b00000000000000000000000000010100 +
b00000000101100001001000100010011 G
0"Z
b00000000000000000000000000010100 :
#101
1",
1X
b000000010100 q
1i
14
1")
1N
b00000000101100001001000100010011 "W
b00000000101100001001000100010011 "?
b000000010100 >
1"Z
1"&
12
1}
b00000000101100001001000100010011 "$
1d
1"`
1~
1"
b000000010100 "+
1"F
#106
b00000000000100011000000100110011 "(
0"`
0~
0}
b00000000000100011000000100110011 G
02
b00000000000100011000000100110011 "=
04
b000000011000 b
0"&
0d
0"
0N
0")
0",
0i
b00000000000100011000000100110011 9
0"F
b00000000000000000000000000011000 :
0X
b00000000000000000000000000011000 u
b00000000000000000000000000011000 +
b00000000000100011000000100110011 /
0"Z
b00000000000000000000000000011000 "J
b00000000000000000000000000011000 "@
#111
1",
1X
b00000000000100011000000100110011 "W
14
1i
b00000000000100011000000100110011 "$
b000000011000 q
1")
1N
1"Z
1"&
12
b000000011000 >
1}
1d
b00000000000100011000000100110011 "?
1"`
1~
1"
b000000011000 "+
1"F
#116
0"`
0~
0}
b00000000011000010001000110010011 G
b00000000011000010001000110010011 "=
02
04
0"&
b000000011100 b
b00000000011000010001000110010011 "(
0d
0"
0N
0")
0",
0i
b00000000000000000000000000011100 :
0"F
b00000000011000010001000110010011 /
b00000000000000000000000000011100 +
b00000000000000000000000000011100 "@
b00000000011000010001000110010011 9
0X
b00000000000000000000000000011100 "J
b00000000000000000000000000011100 u
0"Z
#121
1",
b00000000011000010001000110010011 "$
1X
14
1i
1")
1N
b00000000011000010001000110010011 "W
1"Z
1"&
b000000011100 q
12
1}
1d
b000000011100 >
b000000011100 "+
1~
1"`
1"
1"F
b00000000011000010001000110010011 "?
#126
0"`
0~
b00000000000000000000000000100000 "@
0}
b11110110010000001110000100010011 G
b11110110010000001110000100010011 "(
02
b11110110010000001110000100010011 /
b00000000000000000000000000100000 +
04
0"&
b11110110010000001110000100010011 9
0d
0"
0N
0")
0",
0i
b000000100000 b
0"F
b00000000000000000000000000100000 :
b00000000000000000000000000100000 u
0X
b11110110010000001110000100010011 "=
b00000000000000000000000000100000 "J
0"Z
#131
1",
b11110110010000001110000100010011 "?
1X
b000000100000 >
14
1i
b11110110010000001110000100010011 "W
1")
b000000100000 q
1N
1"Z
1"&
12
1}
1d
1"`
1~
b000000100000 "+
1"
1"F
b11110110010000001110000100010011 "$
#136
0"`
0~
0}
b00000000000000000000000000100100 +
b00000000001100011111000110110011 9
b00000000000000000000000000100100 "@
02
b00000000001100011111000110110011 /
b00000000000000000000000000100100 "J
b00000000001100011111000110110011 G
04
0"&
b00000000001100011111000110110011 "(
0d
0"
0N
0")
0",
0i
b00000000000000000000000000100100 :
0"F
b00000000000000000000000000100100 u
0X
b00000000001100011111000110110011 "=
0"Z
b000000100100 b
#141
1",
1X
b000000100100 "+
14
1i
1")
1N
b000000100100 >
b000000100100 q
b00000000001100011111000110110011 "W
1"Z
1"&
12
1}
1d
b00000000001100011111000110110011 "?
1"`
1~
1"
b00000000001100011111000110110011 "$
1"F
#146
0"`
0~
b00000000000000000000000000101000 :
0}
b00000000000000000000000000101000 +
02
b00000000000000000000000000101000 "J
04
0"&
b00001000010000011111000110010011 9
b00001000010000011111000110010011 "=
0d
0"
0N
0")
0",
0i
b000000101000 b
0"F
b00001000010000011111000110010011 "(
0X
b00001000010000011111000110010011 /
b00000000000000000000000000101000 u
b00001000010000011111000110010011 G
0"Z
b00000000000000000000000000101000 "@
#151
1",
1X
b000000101000 q
b000000101000 "+
1i
14
1")
1N
1"Z
1"&
12
b00001000010000011111000110010011 "?
1}
1d
b00001000010000011111000110010011 "W
b000000101000 >
1"`
1~
1"
b00001000010000011111000110010011 "$
1"F
#156
b11101011010000001100000010010011 /
0"`
0~
b00000000000000000000000000101100 "@
0}
b11101011010000001100000010010011 9
b00000000000000000000000000101100 u
02
04
0"&
b00000000000000000000000000101100 "J
0d
0"
0N
0")
0",
0i
0"F
b11101011010000001100000010010011 "(
b00000000000000000000000000101100 +
0X
b11101011010000001100000010010011 "=
b00000000000000000000000000101100 :
0"Z
b11101011010000001100000010010011 G
b000000101100 b
#161
b000000101100 "+
1",
1X
b000000101100 >
b11101011010000001100000010010011 "W
b11101011010000001100000010010011 "$
1i
14
1")
b11101011010000001100000010010011 "?
1N
1"Z
1"&
12
1}
1d
b000000101100 q
1"`
1~
1"
1"F
#166
0"`
0~
b00000000000000000000000000110000 +
0}
b00000000000100001110000100110011 G
b00000000000100001110000100110011 "(
02
b00000000000000000000000000110000 "@
04
0"&
b00000000000000000000000000110000 "J
0d
0"
0N
0")
0",
0i
0"F
b00000000000100001110000100110011 9
b00000000000000000000000000110000 u
0X
b00000000000100001110000100110011 "=
0"Z
b00000000000000000000000000110000 :
b000000110000 b
b00000000000100001110000100110011 /
#171
1",
b000000110000 q
1X
b00000000000100001110000100110011 "?
14
1i
1")
1N
b00000000000100001110000100110011 "W
1"Z
1"&
12
1}
b000000110000 "+
1d
b000000110000 >
1"`
1~
1"
b00000000000100001110000100110011 "$
1"F
#176
0"`
0~
0}
b00000000000000000000000000110100 +
b00000000000000000000000000110100 u
b00000000000000000000000000110100 "@
02
b00000111100000001000000100010011 G
04
b00000111100000001000000100010011 9
0"&
b00000111100000001000000100010011 /
0d
0"
0N
0")
0",
0i
b00000111100000001000000100010011 "(
0"F
b00000000000000000000000000110100 "J
b00000000000000000000000000110100 :
b000000110100 b
0X
b00000111100000001000000100010011 "=
0"Z
#181
1",
1X
14
b00000111100000001000000100010011 "W
1i
1")
b00000111100000001000000100010011 "?
1N
b000000110100 "+
1"Z
1"&
b000000110100 q
12
1}
1d
1"`
1~
1"
b00000111100000001000000100010011 "$
1"F
b000000110100 >
#186
0"`
0~
0}
b000000111000 b
02
04
0"&
b11110001111000010011000100010011 G
0d
0"
0N
0")
0",
0i
b00000000000000000000000000111000 "@
0"F
b00000000000000000000000000111000 +
b11110001111000010011000100010011 "=
b11110001111000010011000100010011 9
b11110001111000010011000100010011 "(
0X
b00000000000000000000000000111000 :
b00000000000000000000000000111000 u
0"Z
b11110001111000010011000100010011 /
b00000000000000000000000000111000 "J
#191
1",
1X
b000000111000 "+
b11110001111000010011000100010011 "W
b11110001111000010011000100010011 "?
b000000111000 >
b11110001111000010011000100010011 "$
14
1i
1")
1N
1"Z
1"&
12
1}
1d
1"`
1~
1"
b000000111000 q
1"F
#196
b00000000000000010101000110010011 9
0"`
0~
b00000000000000010101000110010011 /
0}
b00000000000000000000000000111100 :
02
b00000000000000000000000000111100 +
04
0"&
b00000000000000000000000000111100 "J
0d
0"
0N
0")
0",
0i
0"F
b00000000000000010101000110010011 G
b00000000000000000000000000111100 "@
b00000000000000000000000000111100 u
0X
b000000111100 b
0"Z
b00000000000000010101000110010011 "=
b00000000000000010101000110010011 "(
#201
b000000111100 >
1",
b00000000000000010101000110010011 "W
1X
b000000111100 "+
14
1i
1")
1N
b000000111100 q
1"Z
1"&
12
1}
b00000000000000010101000110010011 "$
1d
b00000000000000010101000110010011 "?
1"`
1~
1"
1"F
#206
0"`
0~
0}
b11101111011100001010000100010011 9
b000001000000 b
b00000000000000000000000001000000 +
02
04
0"&
b11101111011100001010000100010011 G
b00000000000000000000000001000000 u
0d
0"
0N
0")
0",
0i
b11101111011100001010000100010011 /
0"F
0X
b00000000000000000000000001000000 :
b00000000000000000000000001000000 "@
0"Z
b00000000000000000000000001000000 "J
b11101111011100001010000100010011 "(
b11101111011100001010000100010011 "=
#211
1",
1X
14
b11101111011100001010000100010011 "W
1i
1")
b000001000000 "+
1N
1"Z
1"&
b11101111011100001010000100010011 "?
b000001000000 >
12
1}
b000001000000 q
1d
1"`
1~
1"
b11101111011100001010000100010011 "$
1"F
#216
0"`
0~
0}
b00000000000000000000000001000100 +
02
04
0"&
b01000000000100001101000010010011 G
b01000000000100001101000010010011 9
0d
0"
0N
0")
0",
0i
b00000000000000000000000001000100 u
0"F
b00000000000000000000000001000100 "@
b00000000000000000000000001000100 "J
b01000000000100001101000010010011 "(
0X
b000001000100 b
0"Z
b01000000000100001101000010010011 /
b01000000000100001101000010010011 "=
b00000000000000000000000001000100 :
#221
1",
1X
14
1i
1")
b01000000000100001101000010010011 "W
b01000000000100001101000010010011 "$
1N
1"Z
1"&
12
1}
1d
b000001000100 >
1"`
1~
1"
b01000000000100001101000010010011 "?
b000001000100 q
1"F
b000001000100 "+
#226
0"`
0~
b00000000000000000000000001001000 +
0}
b00000000001100001110000100110011 "(
02
b00000000000000000000000001001000 "J
b00000000001100001110000100110011 9
b00000000000000000000000001001000 u
04
b00000000000000000000000001001000 "@
0"&
b00000000001100001110000100110011 G
b000001001000 b
b00000000001100001110000100110011 /
0d
0"
0N
0")
0",
0i
0"F
0X
b00000000000000000000000001001000 :
0"Z
b00000000001100001110000100110011 "=
#231
1",
1X
b00000000001100001110000100110011 "W
b00000000001100001110000100110011 "$
14
1i
b00000000001100001110000100110011 "?
1")
1N
1"Z
1"&
12
1}
1d
b000001001000 "+
b000001001000 q
1"`
1~
1"
1"F
b000001001000 >
#236
0"`
0~
0}
02
04
b00000000000000000000000001001100 "J
0"&
b00000000000000000000000001001100 +
b00000000000000000000000001001100 u
b00000000000100010100000100110011 /
0d
0"
0N
0")
0",
0i
b00000000000000000000000001001100 :
0"F
b00000000000100010100000100110011 "=
b00000000000100010100000100110011 "(
b000001001100 b
0X
0"Z
b00000000000000000000000001001100 "@
b00000000000100010100000100110011 G
b00000000000100010100000100110011 9
#241
1",
1X
b000001001100 "+
b000001001100 >
b00000000000100010100000100110011 "$
14
1i
1")
b000001001100 q
b00000000000100010100000100110011 "?
1N
1"Z
1"&
12
1}
1d
b00000000000100010100000100110011 "W
1"`
1~
1"
1"F
#246
0"`
0~
0}
02
04
0"&
b01000000001000001000000100110011 9
0d
0"
0N
0")
0",
0i
b01000000001000001000000100110011 /
0"F
b00000000000000000000000001010000 +
b01000000001000001000000100110011 G
b00000000000000000000000001010000 "J
b000001010000 b
b01000000001000001000000100110011 "(
0X
b01000000001000001000000100110011 "=
0"Z
b00000000000000000000000001010000 u
b00000000000000000000000001010000 :
b00000000000000000000000001010000 "@
#251
1",
1X
b01000000001000001000000100110011 "W
b01000000001000001000000100110011 "?
14
1i
1")
1N
b000001010000 >
1"Z
1"&
12
1}
1d
b000001010000 q
b000001010000 "+
1"`
1~
1"
b01000000001000001000000100110011 "$
1"F
#256
b01000000000100011000000010110011 9
0"`
0~
0}
02
b01000000000100011000000010110011 G
04
0"&
b01000000000100011000000010110011 /
b00000000000000000000000001010100 "J
b01000000000100011000000010110011 "=
0d
0"
0N
0")
0",
0i
b00000000000000000000000001010100 "@
0"F
b00000000000000000000000001010100 u
b000001010100 b
0X
b00000000000000000000000001010100 +
b01000000000100011000000010110011 "(
0"Z
b00000000000000000000000001010100 :
#261
1",
1X
b000001010100 >
14
1i
1")
1N
b01000000000100011000000010110011 "$
b000001010100 "+
1"Z
1"&
12
1}
b01000000000100011000000010110011 "W
1d
1"`
1~
1"
b01000000000100011000000010110011 "?
b000001010100 q
1"F
#266
0"`
0~
0}
02
04
0"&
b11101000010100010011000110010011 /
b00000000000000000000000001011000 :
b00000000000000000000000001011000 "@
0d
0"
0N
0")
0",
0i
b11101000010100010011000110010011 9
0"F
b11101000010100010011000110010011 G
0X
b00000000000000000000000001011000 "J
b11101000010100010011000110010011 "=
b00000000000000000000000001011000 +
0"Z
b000001011000 b
b11101000010100010011000110010011 "(
b00000000000000000000000001011000 u
#271
1",
b000001011000 >
1X
14
1i
1")
b11101000010100010011000110010011 "$
b11101000010100010011000110010011 "W
1N
b11101000010100010011000110010011 "?
1"Z
1"&
12
1}
1d
b000001011000 "+
1"`
1~
b000001011000 q
1"
1"F
#276
b00010111110000011000000100010011 G
0"`
0~
0}
02
b00010111110000011000000100010011 /
b00000000000000000000000001011100 +
b000001011100 b
b00000000000000000000000001011100 u
04
0"&
b00010111110000011000000100010011 "(
0d
0"
0N
0")
0",
0i
0"F
b00010111110000011000000100010011 9
0X
b00000000000000000000000001011100 :
b00000000000000000000000001011100 "J
0"Z
b00010111110000011000000100010011 "=
b00000000000000000000000001011100 "@
#281
1",
1X
b000001011100 "+
b00010111110000011000000100010011 "W
14
1i
1")
1N
1"Z
1"&
b000001011100 >
12
1}
1d
1"`
1~
1"
b00010111110000011000000100010011 "?
b000001011100 q
b00010111110000011000000100010011 "$
1"F
#286
0"`
0~
b11110110010000011011000010010011 /
0}
b00000000000000000000000001100000 +
b000001100000 b
02
b00000000000000000000000001100000 "J
04
b00000000000000000000000001100000 u
0"&
b11110110010000011011000010010011 G
0d
0"
0N
0")
0",
0i
b00000000000000000000000001100000 :
0"F
0X
b11110110010000011011000010010011 9
b00000000000000000000000001100000 "@
b11110110010000011011000010010011 "=
b11110110010000011011000010010011 "(
0"Z
#291
1",
1X
b000001100000 "+
14
1i
1")
b000001100000 >
1N
1"Z
1"&
b11110110010000011011000010010011 "?
12
1}
b000001100000 q
1d
b11110110010000011011000010010011 "W
b11110110010000011011000010010011 "$
1"`
1~
1"
1"F
#296
0"`
0~
0}
b00001010000100011100000100010011 /
b00000000000000000000000001100100 :
02
04
0"&
b000001100100 b
0d
0"
0N
0")
0",
0i
b00001010000100011100000100010011 "=
0"F
b00000000000000000000000001100100 +
b00000000000000000000000001100100 "@
0X
b00001010000100011100000100010011 9
b00001010000100011100000100010011 G
b00000000000000000000000001100100 u
b00001010000100011100000100010011 "(
0"Z
b00000000000000000000000001100100 "J
