waveforms/load2.s.vcd
$date
2021-06-19T14:52+0000
$end
$version
0.2
$end
$comment

$end
$timescale 1ns  $end
$scope module Tile $end
 $var wire 1 , io_regsWriteEnable $end
 $var wire 32 . io_regsReadData $end
 $var wire 32 : io_IMEMAddress $end
 $var wire 1 B io_regsDeviceWriteEnable $end
 $var wire 32 U io_DMEMAddress $end
 $var wire 32 k io_DMEMWriteData $end
 $var wire 1 n CPU $end
 $var wire 32 r io_regsDeviceWriteData $end
 $var wire 5 t io_regsDeviceWriteAddress $end
 $var wire 1 } clock $end
 $var wire 32 "# io_currentPC $end
 $var wire 5 "% io_regsAddress $end
 $var wire 32 "2 io_memDeviceWriteAddress $end
 $var wire 1 "3 io_DMEMWriteEnable $end
 $var wire 32 "= io_IMEMWriteData $end
 $var wire 32 "> io_memDeviceWriteData $end
 $var wire 32 "L io_DMEMReadData $end
 $var wire 1 "P reset $end
 $var wire 1 "X io_setup $end
 $var wire 1 "^ io_memDeviceWriteEnable $end
 $var wire 32 "i io_regsWriteData $end
  $scope module CPU.MEM $end
  $upscope $end
  $scope module CPU.ID.registers $end
  $upscope $end
  $scope module CPU.IFBarrier $end
  $upscope $end
  $scope module CPU.IF $end
  $upscope $end
  $scope module CPU.IF.IMEM $end
  $upscope $end
  $scope module CPU.MEM.DMEM $end
  $upscope $end
  $scope module CPU.ID.Decoder $end
  $upscope $end
  $scope module CPU $end
   $var wire 32 + testHarness_setupSignals_IMEMsignals_address $end
   $var wire 32 / testHarness_setupSignals_IMEMsignals_instruction $end
   $var wire 1 8 testHarness_regUpdates_writeEnable $end
   $var wire 1 E ID $end
   $var wire 1 O testHarness_memUpdates_writeEnable $end
   $var wire 32 Y testHarness_regUpdates_writeData $end
   $var wire 5 [ testHarness_setupSignals_registerSignals_readAddress $end
   $var wire 5 \ testHarness_regUpdates_writeAddress $end
   $var wire 32 ^ testHarness_testReadouts_registerRead $end
   $var wire 32 c testHarness_currentPC $end
   $var wire 1 g IF $end
   $var wire 32 l testHarness_memUpdates_writeAddress $end
   $var wire 1 o testHarness_setupSignals_DMEMsignals_setup $end
   $var wire 1 p IFBarrier $end
   $var wire 32 x testHarness_testReadouts_DMEMread $end
   $var wire 32 z testHarness_setupSignals_DMEMsignals_dataIn $end
   $var wire 1 { testHarness_setupSignals_IMEMsignals_setup $end
   $var wire 1 ", clock $end
   $var wire 32 "/ testHarness_setupSignals_DMEMsignals_dataAddress $end
   $var wire 1 "6 testHarness_setupSignals_registerSignals_setup $end
   $var wire 1 "8 MEM $end
   $var wire 1 "A testHarness_setupSignals_registerSignals_writeEnable $end
   $var wire 32 "\ testHarness_memUpdates_writeData $end
   $var wire 32 "d testHarness_setupSignals_registerSignals_writeData $end
   $var wire 1 "h reset $end
   $var wire 1 "j testHarness_setupSignals_DMEMsignals_writeEnable $end
    $scope module ID $end
     $var wire 1 ! testHarness_registerSetup_writeEnable $end
     $var wire 32 D testHarness_registerPeek $end
     $var wire 1 M testHarness_testUpdates_writeEnable $end
     $var wire 32 P io_instruction_instruction $end
     $var wire 32 T testHarness_registerSetup_writeData $end
     $var wire 5 Z testHarness_testUpdates_writeAddress $end
     $var wire 5 "" testHarness_registerSetup_readAddress $end
     $var wire 1 "* registers $end
     $var wire 1 "D Decoder $end
     $var wire 1 "Y testHarness_registerSetup_setup $end
     $var wire 32 "[ testHarness_testUpdates_writeData $end
     $var wire 1 "` clock $end
      $scope module registers $end
       $var wire 1 % testHarness_testUpdates_writeEnable $end
       $var wire 1 & testHarness_setup_setup $end
       $var wire 32 - testHarness_testUpdates_writeData $end
       $var wire 5 0 readAddress1 $end
       $var wire 1 4 clock $end
       $var wire 32 5 io_readData1 $end
       $var wire 32 7 registerFile $end
       $var wire 1 = testHarness_setup_writeEnable $end
       $var wire 1 H writeEnable $end
       $var wire 5 L io_readAddress1 $end
       $var wire 5 ] testHarness_testUpdates_writeAddress $end
       $var wire 1 h io_writeEnable $end
       $var wire 32 s testHarness_setup_writeData $end
       $var wire 5 "5 testHarness_setup_readAddress $end
       $var wire 5 ": writeAddress $end
       $var wire 5 "G io_writeAddress $end
       $var wire 5 "H io_readAddress2 $end
        $scope module registerFile $end
          $scope module _T_33 $end
           $var wire 1 # en $end
           $var wire 1 ( pipeline_valid_0 $end
           $var wire 1 2 clk $end
           $var wire 5 a pipeline_addr_0 $end
           $var wire 1 f mask $end
           $var wire 1 y valid $end
           $var wire 5 "1 addr $end
           $var wire 32 "C pipeline_data_0 $end
           $var wire 32 "] data $end
          $upscope $end
          $scope module _T_41 $end
           $var wire 32 I data $end
           $var wire 1 ` en $end
           $var wire 1 ") clk $end
           $var wire 5 "U addr $end
          $upscope $end
          $scope module _T_38 $end
           $var wire 1 N clk $end
           $var wire 1 v en $end
           $var wire 5 "! addr $end
           $var wire 32 "Q data $end
          $upscope $end
        $upscope $end
      $upscope $end
      $scope module Decoder $end
       $var wire 1 "' io_controlSignals_regWrite $end
       $var wire 32 "; io_instruction_instruction $end
       $var wire 1 "N decodedControlSignals_1 $end
      $upscope $end
    $upscope $end
    $scope module MEM $end
     $var wire 1 ? DMEM $end
     $var wire 32 C testHarness_testUpdates_writeAddress $end
     $var wire 32 e testHarness_DMEMsetup_dataAddress $end
     $var wire 1 "- testHarness_testUpdates_writeEnable $end
     $var wire 1 "7 testHarness_DMEMsetup_writeEnable $end
     $var wire 32 "< testHarness_DMEMpeek $end
     $var wire 1 "M testHarness_DMEMsetup_setup $end
     $var wire 32 "T testHarness_testUpdates_writeData $end
     $var wire 1 "Z clock $end
     $var wire 32 "f testHarness_DMEMsetup_dataIn $end
      $scope module DMEM $end
       $var wire 32 ' testHarness_testUpdates_writeData $end
       $var wire 1 * _GEN_6 $end
       $var wire 12 1 data__T_24_addr_pipe_0 $end
       $var wire 1 < testHarness_testUpdates_writeEnable $end
       $var wire 32 A testHarness_setup_dataAddress $end
       $var wire 32 F testHarness_testUpdates_writeAddress $end
       $var wire 32 R addressSource $end
       $var wire 32 W data $end
       $var wire 1 ". testHarness_setup_writeEnable $end
       $var wire 1 "0 testHarness_setup_setup $end
       $var wire 1 "F clock $end
       $var wire 32 "O testHarness_setup_dataIn $end
       $var wire 32 "_ io_dataOut $end
        $scope module data $end
          $scope module _T_26 $end
           $var wire 1 " clk $end
           $var wire 12 K addr $end
           $var wire 32 S pipeline_data_0 $end
           $var wire 1 m pipeline_valid_0 $end
           $var wire 32 w data $end
           $var wire 1 "B en $end
           $var wire 12 "I pipeline_addr_0 $end
           $var wire 1 "S valid $end
           $var wire 1 "b mask $end
          $upscope $end
          $scope module _T_24 $end
           $var wire 32 ; data $end
           $var wire 1 ~ clk $end
           $var wire 1 "E en $end
           $var wire 12 "K addr $end
          $upscope $end
        $upscope $end
      $upscope $end
    $upscope $end
    $scope module IF $end
     $var wire 1 $ testHarness_IMEMsetup_setup $end
     $var wire 1 @ IMEM $end
     $var wire 32 G testHarness_IMEMsetup_instruction $end
     $var wire 32 _ PC $end
     $var wire 1 i clock $end
     $var wire 32 j testHarness_PC $end
     $var wire 1 "9 reset $end
     $var wire 32 "@ testHarness_IMEMsetup_address $end
     $var wire 32 "V io_instruction_instruction $end
     $var wire 32 "g _GEN_0 $end
      $scope module IMEM $end
       $var wire 32 9 testHarness_setupSignals_instruction $end
       $var wire 12 > instructions__T_20_addr_pipe_0 $end
       $var wire 1 X clock $end
       $var wire 32 u testHarness_setupSignals_address $end
       $var wire 1 | _GEN_4 $end
       $var wire 32 "$ io_instruction $end
       $var wire 1 "4 testHarness_setupSignals_setup $end
       $var wire 32 "J addressSource $end
       $var wire 32 "R testHarness_requestedAddress $end
       $var wire 32 "a io_instructionAddress $end
       $var wire 32 "e instructions $end
        $scope module instructions $end
          $scope module _T_18 $end
           $var wire 1 ) valid $end
           $var wire 1 6 mask $end
           $var wire 1 J pipeline_valid_0 $end
           $var wire 12 b addr $end
           $var wire 1 d clk $end
           $var wire 32 "( data $end
           $var wire 12 "+ pipeline_addr_0 $end
           $var wire 32 "W pipeline_data_0 $end
           $var wire 1 "c en $end
          $upscope $end
          $scope module _T_20 $end
           $var wire 1 V en $end
           $var wire 12 q addr $end
           $var wire 1 "& clk $end
           $var wire 32 "? data $end
          $upscope $end
        $upscope $end
      $upscope $end
    $upscope $end
    $scope module IFBarrier $end
     $var wire 32 3 io_instruction_out_instruction $end
     $var wire 32 Q io_instruction_in_instruction $end
    $upscope $end
  $upscope $end
  $scope module CPU.ID $end
  $upscope $end
$upscope $end
$enddefinitions $end
$dumpvars
b00000000000000000000000000000000 Y
0X
0"7
b00000000000000000000000000000000 '
0&
b000000000000 K
b000000000000 "K
0o
0"c
b00000000000000000000000000000000 ">
0=
b000000000000 b
b00000000000000000000000000000000 r
0"P
b00000000000000000000000000000000 "#
b00000000000000000000000000000000 "d
b00000000000000000000000000000000 l
b00000 ""
b00000000000000000000000000000000 "2
b00000000000000000000000000000000 :
b000000000000 "I
0m
b00000000000000000000000000000000 Q
0g
b00000 "H
0"F
0")
0~
b00000000000000000000000000000000 w
1"b
b000000000000 q
1"E
b00000000000000000000000000000000 "\
0)
b00000000000000000000000000000000 s
0H
b00000000000000000000000000000000 A
0@
b00000000000000000000000000000000 "C
b00000000000000000000000000000000 ;
0%
0v
0"j
b00000000000000000000000000000000 "R
b00000000000000000000000000000000 "=
b00000 "%
0"8
0p
b00000000000000000000000000000000 T
0!
b00000000000000000000000000000000 k
b00000 "!
0"4
b00000000000000000000000000000000 9
0"`
b00000000000000000000000000000000 e
b00000000000000000000000000000000 P
0O
0".
b00000000000000000000000000000000 3
b00000000000000000000000000000000 "g
0{
0"Z
1*
04
b00000000000000000000000000000000 "a
b00000000000000000000000000000000 "L
b00000000000000000000000000000000 "/
0`
0"*
b00000000000000000000000000000000 /
b000000000000 >
b00000 Z
0E
0(
b00000000000000000000000000000000 "]
b00000000000000000000000000000000 "@
0?
b00000000000000000000000000000000 "W
b00000 "G
b00000000000000000000000000000000 _
b00000000000000000000000000000000 -
1V
b00000000000000000000000000000000 "<
b00000000000000000000000000000000 D
0"N
0"9
b00000000000000000000000000000000 S
0i
b00000000000000000000000000000000 U
b00000000000000000000000000000000 j
0"3
b00000 a
b00000 L
0"
b00000000000000000000000000000000 "O
0N
0"-
b00000 [
b00000000000000000000000000000000 "f
b00000000000000000000000000000000 "Q
0"D
b00000 "1
b00000 ]
b00000000000000000000000000000000 I
0"'
b00000 t
0J
1|
b00000000000000000000000000000000 .
b00000 "5
b00000000000000000000000000000000 "(
0"B
b00000000000000000000000000000000 G
0"Y
b000000000000 1
b00000000000000000000000000000000 ^
b00000000000000000000000000000000 "$
b00000000000000000000000000000000 u
0"h
0"S
b00000000000000000000000000000000 ";
b00000000000000000000000000000000 C
0"6
0B
0n
0"M
0<
b00000000000000000000000000000000 "i
1f
b00000000000000000000000000000000 "?
b00000000000000000000000000000000 "T
b00000000000000000000000000000000 7
b00000000000000000000000000000000 "V
16
0M
08
0#
0",
b00000 0
b00000 "U
b00000000000000000000000000000000 "e
b000000000000 "+
0d
b00000 \
02
b00000000000000000000000000000000 "J
b00000 ":
b00000000000000000000000000000000 R
0"0
b00000000000000000000000000000000 5
0}
0h
0"^
b00000000000000000000000000000000 x
b00000000000000000000000000000000 c
b00000000000000000000000000000000 "[
0"A
b00000000000000000000000000000000 F
0y
b00000000000000000000000000000000 z
0"X
0"&
b00000000000000000000000000000000 +
b00000000000000000000000000000000 "_
b00000000000000000000000000000000 W
0,
0$
$end
#0
1"9
b00000000000000000000000000000100 "g
1"P
1"h
#1
1"
1"`
14
1X
12
1}
1"&
1"Z
1N
1d
1")
1i
1",
1"F
1~
#6
0"
0")
0"&
04
0d
0"F
0i
0X
0N
0~
0"`
0}
0",
02
0"Z
#11
1"
1"`
14
1X
12
1}
1"&
1"Z
1N
1d
1")
1i
1",
1"F
1~
#16
0"
0")
0"&
04
0d
0"F
0i
0X
0N
0~
0"`
0}
0",
02
0"Z
#21
1"
1"`
14
1X
12
1}
1"&
1"Z
1N
1d
1")
1i
1",
1"F
1~
#26
0"
0")
0"&
04
0d
0"F
0i
0X
0N
0~
0"`
0}
0",
02
0"Z
#31
1"
1"`
14
1X
12
1}
1"&
1"Z
1N
1d
1")
1i
1",
1"F
1~
#36
0"
0")
0"&
04
0d
0"F
0i
0X
0N
0~
0"`
0}
0",
02
0"Z
#41
1"
1"`
14
1X
12
1}
1"&
1"Z
1N
1d
1")
1i
1",
1"F
1~
#46
1$
0")
0"&
b00000000010000000000000010010011 G
1o
b00000000000000000000000000010011 P
b00000000000000000000000000010011 ";
0i
1"0
b00000000010000000000000010010011 "(
1)
b00000000010000000000000010010011 /
0N
1"c
b00000000000000000000000000010011 3
0"P
1"X
0}
1{
02
0"Z
0"
b00000000010000000000000010010011 9
04
0d
0"F
1"Y
b00000000000000000000000000010011 Q
b00000000010000000000000010010011 "=
1"M
1"4
0X
b00000000000000000000000000010011 "V
0"9
1&
0~
0"`
0"h
1"6
b00000000000000000000000000000000 "g
0",
#51
1"
1"`
14
1X
12
1}
1"&
1"Z
1N
1d
b00000000010000000000000010010011 "$
b00000000010000000000000010010011 "W
1")
1i
1J
1",
b00000000010000000000000010010011 "?
1"F
1~
#56
0"
0")
0"&
04
0d
0"F
b00000000000000000000000000000100 u
b00000000010000000000000100010011 G
0i
b00000000010000000000000100010011 9
b00000000000000000000000000000100 :
b000000000100 b
b00000000010000000000000100010011 "=
0X
0N
b00000000010000000000000100010011 "(
b00000000000000000000000000000100 "J
0~
0"`
b00000000010000000000000100010011 /
b00000000000000000000000000000100 "@
0}
b00000000000000000000000000000100 +
0",
02
0"Z
#61
1"
b000000000100 "+
1"`
14
1X
b000000000100 >
12
b00000000010000000000000100010011 "$
1}
1"&
b00000000010000000000000100010011 "?
1"Z
b000000000100 q
1N
1d
1")
b00000000010000000000000100010011 "W
1i
1",
1"F
1~
#66
b00000000010000000000000110010011 "=
b00000000010000000000000110010011 9
0"
b00000000000000000000000000001000 +
0")
0"&
b000000001000 b
04
0d
0"F
0i
0X
0N
b00000000000000000000000000001000 :
b00000000010000000000000110010011 "(
0~
0"`
b00000000010000000000000110010011 G
b00000000000000000000000000001000 u
b00000000000000000000000000001000 "J
0}
b00000000000000000000000000001000 "@
0",
02
0"Z
b00000000010000000000000110010011 /
#71
1"
1"`
14
b00000000010000000000000110010011 "?
1X
12
1}
1"&
b00000000010000000000000110010011 "$
1"Z
b000000001000 "+
1N
1d
b00000000010000000000000110010011 "W
1")
1i
b000000001000 >
1",
b000000001000 q
1"F
1~
#76
b00000000000000000000000000001100 u
0"
b000000001100 b
0")
0"&
04
0d
b00000000010000000000001000010011 9
b00000000000000000000000000001100 :
b00000000010000000000001000010011 G
0"F
0i
b00000000000000000000000000001100 "@
b00000000010000000000001000010011 "=
b00000000010000000000001000010011 /
0X
0N
b00000000000000000000000000001100 "J
0~
0"`
b00000000010000000000001000010011 "(
0}
b00000000000000000000000000001100 +
0",
02
0"Z
#81
b000000001100 "+
1"
1"`
14
b00000000010000000000001000010011 "$
1X
12
b00000000010000000000001000010011 "W
1}
b00000000010000000000001000010011 "?
1"&
1"Z
b000000001100 q
1N
1d
1")
1i
1",
b000000001100 >
1"F
1~
#86
b00000000000000000000000000010000 u
0"
0")
0"&
b00000000000000000000000000010000 :
04
0d
b00000000000000001010000010000011 G
b00000000000000001010000010000011 "(
0"F
b00000000000000001010000010000011 /
b00000000000000001010000010000011 9
b00000000000000000000000000010000 "@
0i
b00000000000000000000000000010000 +
b00000000000000001010000010000011 "=
b000000010000 b
0X
0N
b00000000000000000000000000010000 "J
0~
0"`
0}
0",
02
0"Z
#91
1"
1"`
14
1X
12
1}
1"&
1"Z
1N
1d
1")
b00000000000000001010000010000011 "W
1i
1",
b000000010000 q
b000000010000 >
1"F
b00000000000000001010000010000011 "?
b00000000000000001010000010000011 "$
1~
b000000010000 "+
#96
0"
0")
0"&
b00000000000000000000000000010100 :
04
0d
b00000000000100001000000010110011 "=
b00000000000100001000000010110011 9
b00000000000000000000000000010100 +
0"F
b00000000000100001000000010110011 /
b00000000000100001000000010110011 "(
0i
0X
0N
b00000000000000000000000000010100 "@
b00000000000000000000000000010100 u
b00000000000000000000000000010100 "J
b00000000000100001000000010110011 G
0~
0"`
0}
0",
02
0"Z
b000000010100 b
#101
1"
b00000000000100001000000010110011 "$
1"`
14
1X
12
b00000000000100001000000010110011 "?
1}
b000000010100 >
1"&
1"Z
1N
1d
1")
b000000010100 "+
1i
b000000010100 q
1",
1"F
b00000000000100001000000010110011 "W
1~
#106
b00000000000000000000000000011000 "@
b00000000000000000000000000011000 +
b00000000000000000000000000011000 u
0"
0")
0"&
b00000000000000000000000000011000 "J
04
0d
b00000000000000001010000010000011 G
b00000000000000001010000010000011 "(
0"F
b00000000000000001010000010000011 /
b00000000000000001010000010000011 9
0i
b00000000000000001010000010000011 "=
0X
0N
b00000000000000000000000000011000 :
0~
0"`
0}
0",
02
0"Z
b000000011000 b
#111
1"
1"`
14
1X
b000000011000 >
12
1}
1"&
1"Z
b000000011000 q
1N
1d
1")
b00000000000000001010000010000011 "W
1i
b000000011000 "+
1",
1"F
b00000000000000001010000010000011 "?
b00000000000000001010000010000011 "$
1~
#116
b00000000000000000000000000011100 u
b00000000000000000000000000011100 "J
0"
0")
0"&
04
0d
b00000000000000000000000000011100 :
b000000011100 b
0"F
b00000000000100001010001000100011 G
0i
b00000000000000000000000000011100 +
0X
0N
b00000000000100001010001000100011 /
b00000000000100001010001000100011 "(
b00000000000100001010001000100011 9
0~
0"`
b00000000000000000000000000011100 "@
0}
0",
02
0"Z
b00000000000100001010001000100011 "=
#121
b00000000000100001010001000100011 "W
1"
1"`
14
1X
12
1}
b000000011100 "+
1"&
1"Z
b000000011100 >
1N
1d
b00000000000100001010001000100011 "$
1")
1i
b00000000000100001010001000100011 "?
1",
b000000011100 q
1"F
1~
#126
b00000000000000000000000000100000 u
b00000000010000001010000010000011 "(
0"
b00000000000000000000000000100000 :
0")
0"&
04
0d
b00000000010000001010000010000011 9
b00000000000000000000000000100000 "J
0"F
b00000000000000000000000000100000 +
b000000100000 b
0i
b00000000010000001010000010000011 /
0X
0N
0~
0"`
0}
b00000000000000000000000000100000 "@
b00000000010000001010000010000011 G
0",
02
0"Z
b00000000010000001010000010000011 "=
#131
1"
1"`
b000000100000 q
14
1X
b00000000010000001010000010000011 "$
12
1}
b00000000010000001010000010000011 "W
1"&
1"Z
1N
1d
b00000000010000001010000010000011 "?
1")
1i
1",
b000000100000 >
b000000100000 "+
1"F
1~
#136
b00000000000000000000000000100100 "@
b00000000000000000000000000100100 :
b00000000000000000000000000100100 u
0"
b00000000000000000000000000100100 +
b00000000000000000000000000100100 "J
0")
0"&
04
0d
b00000000000000000000000000010011 "(
0"F
b00000000000000000000000000010011 G
b000000100100 b
0i
b00000000000000000000000000010011 /
0X
0N
b00000000000000000000000000010011 9
0~
0"`
0}
0",
02
0"Z
b00000000000000000000000000010011 "=
#141
b00000000000000000000000000010011 "W
1"
1"`
14
1X
b00000000000000000000000000010011 "$
12
1}
1"&
b00000000000000000000000000010011 "?
1"Z
b000000100100 "+
1N
1d
b000000100100 q
1")
1i
1",
b000000100100 >
1"F
1~
#146
b00000000000000000000000000000000 "=
b00000000000000000000000000000000 9
b01110 ]
b00000000000000000000111111111100 :
b01110 t
1#
0")
0"&
1B
1,
1=
b01110 ""
b01110 [
1H
0i
1v
1y
1!
1M
b00000000000000000000111111111100 "@
b111111111100 b
0N
b01110 "1
b01110 "5
1"A
b00000000000000000000111111111100 "J
0}
b01110 0
b00000000000000000000000000000000 "(
02
0"Z
b01110 "!
b01110 ":
b01110 \
0"
04
0d
1%
18
b01110 Z
0"F
b00000000000000000000111111111100 u
b00000000000000000000000000000000 /
b00000000000000000000111111111100 +
0X
b01110 "%
b00000000000000000000000000000000 G
0~
0"`
0",
#151
b01110 a
1"
1"`
14
1X
12
1}
b111111111100 >
1"&
b111111111100 "+
1"Z
1N
1d
b00000000000000000000000000000000 "?
b00000000000000000000000000000000 "$
1")
1i
1(
1",
1"F
1~
b00000000000000000000000000000000 "W
b111111111100 q
#156
b01010 ":
0"
b01010 0
0")
0"&
04
0d
0"F
b01010 "5
b01010 "1
0i
b01010 [
b01010 "!
0X
0N
0~
0"`
b01010 "%
b01010 ""
b01010 \
0}
b01010 ]
b01010 t
0",
02
0"Z
b01010 Z
#161
1"
1"`
14
1X
12
1}
1"&
1"Z
1N
1d
1")
b01010 a
1i
1",
1"F
1~
#166
b10001 Z
0"
b10001 ":
0")
0"&
04
0d
b10001 0
0"F
b10001 "!
b10001 [
0i
b10001 \
b10001 "%
0X
0N
b10001 ]
b10001 ""
0~
0"`
b10001 "1
b10001 "5
0}
b10001 t
0",
02
0"Z
#171
1"
1"`
14
1X
12
1}
1"&
1"Z
b10001 a
1d
1N
1")
1i
1",
1"F
1~
#176
0")
0"&
b00000 [
b00000 ""
b00000 "!
0i
0N
0}
0v
b00000 ":
0y
02
0"Z
0"
b00000 t
04
0d
b00000 "1
b00000 \
b00000 0
0"F
b00000 Z
0#
0X
b00000 "5
0~
0"`
b00000 "%
0",
b00000 ]
#181
1"
1"`
14
1X
12
1}
1"&
1"Z
1N
1d
1")
b00000 a
1i
1",
0(
1"F
1~
#186
1#
0")
0"&
0i
1v
1y
0N
b00100 ""
0}
b00100 ":
02
0"Z
b00100 "!
b00100 t
b00100 Z
0"
b00100 "5
b00100 "%
04
0d
0"F
b00100 "1
b00100 ]
b00100 \
b00100 [
0X
b00100 0
0~
0"`
0",
#191
1"
1"`
14
1X
b00100 a
12
1}
1"&
1"Z
1N
1d
1")
1i
1(
1",
1"F
1~
#196
b11000 Z
b11000 t
0"
b11000 [
b11000 "!
b11000 ]
0")
0"&
04
0d
b11000 "5
b11000 "1
0"F
b11000 "%
b11000 \
b11000 ""
0i
b11000 ":
0X
0N
b11000 0
0~
0"`
0}
0",
02
0"Z
#201
1"
1"`
14
1X
b11000 a
12
1}
1"&
1"Z
1N
1d
1")
1i
1",
1"F
1~
#206
b00110 ":
0"
b00110 0
0")
0"&
b00110 "%
04
0d
b00110 ]
b00110 t
0"F
b00110 [
b00110 "!
0i
b00110 "1
0X
0N
b00110 ""
b00110 Z
b00110 "5
0~
0"`
0}
0",
02
0"Z
b00110 \
#211
1"
1"`
14
1X
12
1}
1"&
1"Z
1N
1d
1")
1i
1",
b00110 a
1"F
1~
#216
0"
0")
0"&
b10100 "%
04
0d
b10100 "1
0"F
0i
b10100 ]
b10100 \
b10100 t
b10100 [
0X
0N
b10100 ""
0~
0"`
b10100 "5
b10100 0
0}
b10100 Z
b10100 ":
b10100 "!
0",
02
0"Z
#221
1"
1"`
14
1X
b10100 a
12
1}
1"&
1"Z
1N
1d
1")
1i
1",
1"F
1~
#226
b00111 [
b00111 t
0"
b00111 "1
b00111 \
0")
0"&
04
0d
0"F
b00111 ":
0i
b00111 ""
0X
0N
b00111 ]
b00111 Z
b00111 "5
0~
0"`
b00111 "!
0}
b00111 0
0",
02
0"Z
b00111 "%
#231
1"
1"`
14
1X
12
1}
1"&
1"Z
1N
1d
1")
1i
1",
b00111 a
1"F
1~
#236
b00001 t
b00001 "1
b00001 0
0"
b00001 "!
0")
0"&
b00001 [
04
0d
0"F
b00001 Z
0i
0X
0N
b00001 ]
b00001 ""
b00001 ":
0~
0"`
b00001 "5
b00001 "%
0}
b00001 \
0",
02
0"Z
#241
1"
1"`
14
1X
12
1}
1"&
1"Z
1N
1d
b00001 a
1")
1i
1",
1"F
1~
#246
b11011 ":
0"
b11011 Z
0")
0"&
b11011 "1
04
0d
0"F
b11011 "%
0i
b11011 t
b11011 [
0X
0N
b11011 ""
b11011 ]
0~
0"`
b11011 "5
b11011 "!
0}
b11011 \
b11011 0
0",
02
0"Z
#251
1"
1"`
14
1X
b11011 a
12
1}
1"&
1"Z
1N
1d
1")
1i
1",
1"F
1~
#256
b01101 Z
b01101 \
0"
0")
0"&
04
0d
b01101 t
0"F
b01101 ]
0i
0X
0N
b01101 "%
b01101 "!
b01101 ""
0~
0"`
b01101 "5
b01101 ":
0}
b01101 0
b01101 [
b01101 "1
0",
02
0"Z
#261
b01101 a
1"
1"`
14
1X
12
1}
1"&
1"Z
1N
1d
1")
1i
1",
1"F
1~
#266
b01011 ]
b01011 Z
0"
0")
0"&
04
0d
b01011 ":
b01011 0
0"F
b01011 "!
b01011 t
0i
b01011 \
b01011 [
b01011 "1
0X
0N
b01011 ""
b01011 "%
0~
0"`
b01011 "5
0}
0",
02
0"Z
#271
1"
1"`
14
1X
12
1}
1"&
1"Z
1N
1d
1")
1i
1",
1"F
b01011 a
1~
#276
b01100 t
b01100 ""
0"
0")
0"&
b01100 [
04
0d
b01100 0
0"F
b01100 "1
0i
b01100 \
b01100 "5
0X
0N
0~
0"`
b01100 ":
b01100 "%
b01100 ]
0}
b01100 Z
0",
02
0"Z
b01100 "!
#281
1"
1"`
14
1X
12
1}
1"&
1"Z
1N
1d
1")
1i
1",
1"F
b01100 a
1~
#286
b00011 "!
b00011 "1
0"
0")
0"&
04
0d
b00011 "5
b00011 [
0"F
b00011 \
0i
b00011 t
b00011 "%
b00011 0
0X
0N
b00011 ""
b00011 Z
0~
0"`
b00011 ]
b00011 ":
0}
0",
02
0"Z
#291
1"
1"`
14
1X
12
b00011 a
1}
1"&
1"Z
1N
1d
1")
1i
1",
1"F
1~
#296
0"
0")
0"&
04
0d
b00101 "1
b00101 ":
0"F
b00101 "%
b00101 [
b00101 Z
0i
b00101 ]
0X
0N
b00101 "5
b00101 \
b00101 t
0~
0"`
b00101 ""
0}
b00101 0
0",
02
0"Z
b00101 "!
#301
1"
1"`
14
1X
12
1}
1"&
1"Z
1N
1d
1")
1i
1",
1"F
1~
b00101 a
#306
b10011 "!
0"
b10011 0
0")
0"&
04
0d
b10011 [
b10011 ""
0"F
0i
b10011 "1
b10011 \
b10011 t
0X
0N
b10011 "5
0~
0"`
b10011 ":
b10011 "%
b10011 ]
b10011 Z
0}
0",
02
0"Z
#311
1"
1"`
14
1X
12
1}
1"&
1"Z
1N
1d
1")
1i
1",
1"F
b10011 a
1~
#316
b10111 "1
0"
b10111 [
b10111 ]
0")
0"&
04
0d
b10111 \
b10111 ""
0"F
b10111 "5
0i
b10111 ":
b10111 0
0X
0N
b10111 Z
b10111 "%
0~
0"`
b10111 "!
0}
b10111 t
0",
02
0"Z
#321
1"
1"`
14
1X
12
1}
1"&
1"Z
1N
1d
1")
1i
1",
1"F
b10111 a
1~
#326
0"
b01111 0
b01111 "!
0")
0"&
b01111 ]
04
0d
b01111 t
b01111 \
b01111 "1
0"F
b01111 ""
b01111 "5
0i
b01111 ":
0X
0N
b01111 "%
b01111 [
b01111 Z
0~
0"`
0}
0",
02
0"Z
#331
1"
1"`
14
1X
12
1}
1"&
1"Z
1N
1d
b01111 a
1")
1i
1",
1"F
1~
#336
b01000 "!
b01000 Z
b01000 "1
0"
0")
0"&
b01000 ""
04
0d
b01000 \
0"F
0i
b01000 ]
b01000 0
b01000 t
0X
0N
0~
0"`
b01000 "%
b01000 [
b01000 ":
0}
b01000 "5
0",
02
0"Z
#341
b01000 a
1"
1"`
14
1X
12
1}
1"&
1"Z
1N
1d
1")
1i
1",
1"F
1~
#346
b01001 ":
b01001 ]
b01001 "!
b01001 "1
0"
0")
0"&
04
0d
b01001 "%
0"F
b01001 t
0i
b01001 \
0X
0N
b01001 "5
0~
0"`
b01001 0
b01001 [
0}
b01001 Z
b01001 ""
0",
02
0"Z
#351
1"
b01001 a
1"`
14
1X
12
1}
1"&
1"Z
1N
1d
1")
1i
1",
1"F
1~
#356
b10101 ""
0"
0")
0"&
04
0d
0"F
b10101 t
b10101 0
b10101 "!
0i
b10101 \
b10101 ]
0X
0N
b10101 "5
b10101 "1
b10101 Z
b10101 ":
0~
0"`
b10101 "%
0}
0",
02
0"Z
b10101 [
#361
1"
1"`
14
b10101 a
1X
12
1}
1"&
1"Z
1N
1d
1")
1i
1",
1"F
1~
#366
0"
b11100 t
0")
0"&
04
0d
0"F
b11100 [
b11100 "1
b11100 ":
0i
b11100 ]
b11100 Z
b11100 \
0X
0N
b11100 "%
0~
0"`
b11100 "5
b11100 "!
0}
b11100 0
0",
02
0"Z
b11100 ""
#371
b11100 a
1"
1"`
14
1X
12
1}
1"&
1"Z
1N
1d
1")
1i
1",
1"F
1~
#376
0"
b10000 Z
b10000 t
b10000 ]
0")
0"&
b10000 \
04
0d
0"F
0i
b10000 [
0X
0N
b10000 "1
b10000 ":
b10000 0
0~
0"`
b10000 "!
0}
b10000 "5
b10000 ""
0",
02
0"Z
b10000 "%
#381
1"
1"`
14
1X
12
1}
1"&
b10000 a
1"Z
1N
1d
1")
1i
1",
1"F
1~
#386
b10010 t
b10010 [
b10010 "1
0"
b10010 \
0")
0"&
04
0d
b10010 "%
0"F
b10010 ":
b10010 ""
b10010 0
0i
b10010 ]
0X
0N
b10010 Z
0~
0"`
b10010 "5
b10010 "!
0}
0",
02
0"Z
#391
1"
1"`
14
1X
12
1}
1"&
1"Z
1N
1d
b10010 a
1")
1i
1",
1"F
1~
#396
b11010 0
b11010 ""
b11010 [
0"
b11010 \
0")
0"&
b11010 Z
04
0d
b11010 ":
0"F
b11010 ]
0i
0X
0N
b11010 t
0~
0"`
b11010 "1
b11010 "%
b11010 "!
0}
0",
02
0"Z
b11010 "5
#401
1"
1"`
14
1X
12
1}
1"&
1"Z
b11010 a
1N
1d
1")
1i
1",
1"F
1~
